alg->triggers.push_back("HLT_mu6_mu4_bJpsimumu");  ////92
alg->triggers.push_back("HLT_mu6_mu4_bJpsimumu_noL2");  ////82
alg->triggers.push_back("HLT_2mu4_bJpsimumu");  ////69
alg->triggers.push_back("HLT_mu6_mu4_bBmumuxv2");  ////64
alg->triggers.push_back("HLT_2mu4_bJpsimumu_noL2");  ////58
alg->triggers.push_back("HLT_mu6_mu4_bBmumux_BpmumuKp");  ////57
alg->triggers.push_back("HLT_2mu4_bBmumuxv2");  ////48
alg->triggers.push_back("HLT_mu6_mu4_l2msonly_bJpsimumu_noL2");  ////43
alg->triggers.push_back("HLT_mu6_l2msonly_mu4_bJpsimumu_noL2");  ////43
alg->triggers.push_back("HLT_2mu4_bBmumux_BpmumuKp");  ////42
alg->triggers.push_back("HLT_mu6_l2msonly_mu4_l2msonly_bJpsimumu_noL2");  ////32
alg->triggers.push_back("HLT_2mu6_bJpsimumu");  ////30
alg->triggers.push_back("HLT_2mu6_bJpsimumu_noL2");  ////27
alg->triggers.push_back("HLT_2mu6_bBmumuxv2");  ////23
alg->triggers.push_back("HLT_mu4_mu4_l2msonly_bJpsimumu_noL2");  ////20
alg->triggers.push_back("HLT_2mu6_bBmumux_BpmumuKp");  ////20
alg->triggers.push_back("HLT_2mu4_l2msonly_bJpsimumu_noL2");  ////19
alg->triggers.push_back("HLT_3mu4_bJpsi");  ////15
alg->triggers.push_back("HLT_2mu6_l2msonly_bJpsimumu_noL2");  ////12
alg->triggers.push_back("HLT_mu6_mu6_l2msonly_bJpsimumu_noL2");  ////12
alg->triggers.push_back("HLT_mu6_mu4_bBmumux_BcmumuDsloose");  ////12
alg->triggers.push_back("HLT_2mu4_bBmumux_BcmumuDsloose");  ////11
alg->triggers.push_back("HLT_mu10_mu6_bBmumuxv2");  ////11
alg->triggers.push_back("HLT_mu10_mu6_bBmumux_BpmumuKp");  ////10
alg->triggers.push_back("HLT_mu6_l2msonly_2mu4_l2msonly_L1MU6_3MU4");  ////10
alg->triggers.push_back("HLT_mu18_2mu0noL1_JpsimumuFS");  ////8
alg->triggers.push_back("HLT_mu20_iloose_L1MU15");  ////7
alg->triggers.push_back("HLT_2mu4_bDimu");  ////7
alg->triggers.push_back("HLT_mu18_2mu4_JpsimumuL2");  ////6
alg->triggers.push_back("HLT_mu10_mucombTag_noEF_L1MU40");  ////6
alg->triggers.push_back("HLT_mu18_mu8noL1");  ////6
alg->triggers.push_back("HLT_mu20_2mu0noL1_JpsimumuFS");  ////6
alg->triggers.push_back("HLT_mu20_msonly_mu6noL1_msonly_nscan05");  ////6
alg->triggers.push_back("HLT_mu8_mucombTag_noEF_L1MU40");  ////5
alg->triggers.push_back("HLT_mu20_2mu4_JpsimumuL2");  ////5
alg->triggers.push_back("HLT_2mu4");  ////5
alg->triggers.push_back("HLT_2mu4_bDimu_novtx_noos");  ////5
alg->triggers.push_back("HLT_mu20_mu8noL1");  ////4
alg->triggers.push_back("HLT_2mu10");  ////4
alg->triggers.push_back("HLT_2mu10_bJpsimumu");  ////4
alg->triggers.push_back("HLT_2mu10_bJpsimumu_noL2");  ////4
alg->triggers.push_back("HLT_2mu6_bBmumux_BcmumuDsloose");  ////4
alg->triggers.push_back("HLT_mu6_mu4_bDimu");  ////4
alg->triggers.push_back("HLT_mu24_iloose_L1MU15");  ////4
alg->triggers.push_back("HLT_mu10_bJpsi_Trkloose");  ////3
alg->triggers.push_back("HLT_3mu4_l2msonly");  ////3
alg->triggers.push_back("HLT_mu10_mu6_bBmumux_BcmumuDsloose");  ////3
alg->triggers.push_back("HLT_mu6_mu4_bDimu_noL2");  ////3
alg->triggers.push_back("HLT_2mu10_bBmumux_BpmumuKp");  ////3
alg->triggers.push_back("HLT_2mu10_bBmumuxv2");  ////3
alg->triggers.push_back("HLT_mu6_mu4_l2msonly_bDimu_noL2");  ////3
alg->triggers.push_back("HLT_2mu10_l2msonly");  ////3
alg->triggers.push_back("HLT_mu20_mu6noL1_nscan03");  ////3
alg->triggers.push_back("HLT_mu22_mu8noL1");  ////3
alg->triggers.push_back("HLT_mu26_imedium");  ////3
alg->triggers.push_back("HLT_3mu6_bJpsi");  ////3
alg->triggers.push_back("HLT_mu24_imedium");  ////3
alg->triggers.push_back("HLT_2mu6_l2msonly_mu4_l2msonly_L12MU6_3MU4");  ////3
alg->triggers.push_back("HLT_3mu4");  ////2
alg->triggers.push_back("HLT_2mu4_bDimu_noL2");  ////2
alg->triggers.push_back("HLT_2mu4_l2msonly_bDimu_noL2");  ////2
alg->triggers.push_back("HLT_mu4_mu4_idperf_bJpsimumu_noid");  ////2
alg->triggers.push_back("HLT_mu24_mu8noL1");  ////2
alg->triggers.push_back("HLT_mu4_mu4_l2msonly_bDimu_noL2");  ////2
alg->triggers.push_back("HLT_3mu6_msonly");  ////2
alg->triggers.push_back("HLT_2mu14_l2msonly");  ////2
alg->triggers.push_back("HLT_2mu10_l2msonly_bJpsimumu_noL2");  ////2
alg->triggers.push_back("HLT_mu10_mu10_l2msonly_bJpsimumu_noL2");  ////2
alg->triggers.push_back("HLT_mu4_j40_dr05_3j40_L14J20");  ////2
alg->triggers.push_back("HLT_mu6_j50_dr05_2j35_L1MU4_3J20");  ////2
alg->triggers.push_back("HLT_2mu6");  ////2
alg->triggers.push_back("HLT_mu6_mu4_bDimu_novtx_noos");  ////2
alg->triggers.push_back("HLT_2mu14");  ////1
alg->triggers.push_back("HLT_mu6_l2msonly_mu4_l2msonly_bDimu_noL2");  ////1
alg->triggers.push_back("HLT_mu15_mucombTag_noEF_L1MU40");  ////1
alg->triggers.push_back("HLT_mu20_L1MU15");  ////1
alg->triggers.push_back("HLT_2mu6_bDimu_novtx_noos");  ////1
alg->triggers.push_back("HLT_mu4_bJpsi_Trkloose");  ////1
alg->triggers.push_back("HLT_mu6_bJpsi_Trkloose");  ////1
alg->triggers.push_back("HLT_mu18_bJpsi_Trkloose");  ////1
alg->triggers.push_back("HLT_3mu4_bDimu");  ////1
alg->triggers.push_back("HLT_mu18");  ////1
alg->triggers.push_back("HLT_2mu6_bDimu");  ////1
alg->triggers.push_back("HLT_2mu14_2j35_bperf");  ////1
alg->triggers.push_back("HLT_mu20_idperf");  ////1
alg->triggers.push_back("HLT_mu26_imedium_2j35_bperf");  ////1
alg->triggers.push_back("HLT_j30_muvtx_noiso");  ////1
alg->triggers.push_back("HLT_2mu6_bDimu_noL2");  ////1
alg->triggers.push_back("HLT_mu6_l2msonly_mu4_bDimu_noL2");  ////1
alg->triggers.push_back("HLT_mu14");  ////1
alg->triggers.push_back("HLT_mu4_3j45_dr05_L1MU4_3J15");  ////1
alg->triggers.push_back("HLT_mu4_3j45_dr05_L1MU4_3J20");  ////1
alg->triggers.push_back("HLT_mu6_j60_dr05_L1MU6_J20");  ////1
alg->triggers.push_back("HLT_mu6_j50_dr05_2j35_L1MU4_3J15");  ////1
alg->triggers.push_back("HLT_mu4_j60_dr05_2j35_L1MU4_3J20");  ////1
alg->triggers.push_back("HLT_mu4_j60_dr05_2j35_L1MU4_3J15");  ////1
alg->triggers.push_back("HLT_mu20_llns_mu6noL1_nscan03");  ////1
alg->triggers.push_back("HLT_mu6_2j40_0eta490_invm600_L1MU6_J30.0ETA49_2J20.0ETA49");  ////1
alg->triggers.push_back("HLT_mu6_2j40_0eta490_invm400_L1MU6_J30.0ETA49_2J20.0ETA49");  ////1
alg->triggers.push_back("HLT_mu4_4j40_dr05_L1MU4_3J20");  ////1
alg->triggers.push_back("HLT_mu4_4j40_dr05_L1MU4_3J15");  ////1
alg->triggers.push_back("HLT_mu40");  ////0
alg->triggers.push_back("HLT_mu11");  ////0
alg->triggers.push_back("HLT_mu14_iloose");  ////0
alg->triggers.push_back("HLT_mu0_muoncalib_L1MU15");  ////0
alg->triggers.push_back("HLT_mu0_muoncalib_L1MU4_EMPTY");  ////0
alg->triggers.push_back("HLT_mu0_muoncalib_ds3");  ////0
alg->triggers.push_back("HLT_mu0_muoncalib_ds3_L1MU15");  ////0
alg->triggers.push_back("HLT_mu0_muoncalib_ds3_L1MU4_EMPTY");  ////0
alg->triggers.push_back("HLT_mu11_L1MU10_2mu4noL1_nscan03_L1MU10_2MU6");  ////0
alg->triggers.push_back("HLT_mu11_2mu4noL1_nscan03_L1MU11_2MU6");  ////0
alg->triggers.push_back("HLT_mu6_mu4_bUpsimumu_L1BPH-2M-MU6MU4");  ////0
alg->triggers.push_back("HLT_mu11_2mu4noL1_nscan03_L1MU11_LFV-MU");  ////0
alg->triggers.push_back("HLT_mu20_l2msonly_mu6noL1_nscan03_l2msonly");  ////0
alg->triggers.push_back("HLT_mu11_l2msonly_L1MU10_2mu4noL1_nscan03_l2msonly_L1MU10_2MU6");  ////0
alg->triggers.push_back("HLT_mu11_l2msonly_2mu4noL1_nscan03_l2msonly_L1MU11_2MU6");  ////0
alg->triggers.push_back("HLT_3mu6_msonly_L1MU4_EMPTY");  ////0
alg->triggers.push_back("HLT_3mu6_msonly_L1MU4_UNPAIRED_ISO");  ////0
alg->triggers.push_back("HLT_mu20_msonly_mu6noL1_msonly_nscan05_L1MU4_EMPTY");  ////0
alg->triggers.push_back("HLT_mu20_msonly_mu6noL1_msonly_nscan05_L1MU4_UNPAIRED_ISO");  ////0
alg->triggers.push_back("HLT_2mu6_10invm30_pt2_z10");  ////0
alg->triggers.push_back("HLT_2mu10_bBmumux_BcmumuDsloose");  ////0
alg->triggers.push_back("HLT_mu11_L1MU10_2mu4noL1_nscan03");  ////0
alg->triggers.push_back("HLT_2mu4_bDimu_novtx_noos_L1BPH-2M-2MU4");  ////0
alg->triggers.push_back("HLT_2mu4_bBmumu_L1BPH-4M8-2MU4");  ////0
alg->triggers.push_back("HLT_2mu4_bBmumuxv2_L1BPH-4M8-2MU4");  ////0
alg->triggers.push_back("HLT_2mu4_bBmumux_BcmumuDsloose_L1BPH-4M8-2MU4");  ////0
alg->triggers.push_back("HLT_2mu4_bDimu_L1BPH-4M8-2MU4");  ////0
alg->triggers.push_back("HLT_2mu4_bDimu_novtx_noos_L1BPH-4M8-2MU4");  ////0
alg->triggers.push_back("HLT_2mu4_bJpsimumu_L1BPH-DR-2MU4-BPH-2M-2MU4");  ////0
alg->triggers.push_back("HLT_2mu4_bBmumu_L1BPH-DR-2MU4-BPH-2M-2MU4");  ////0
alg->triggers.push_back("HLT_2mu4_bBmumuxv2_L1BPH-DR-2MU4-BPH-2M-2MU4");  ////0
alg->triggers.push_back("HLT_2mu4_bBmumux_BcmumuDsloose_L1BPH-DR-2MU4-BPH-2M-2MU4");  ////0
alg->triggers.push_back("HLT_mu4_iloose_mu4_11invm60_noos_novtx");  ////0
alg->triggers.push_back("HLT_2mu4_bDimu_novtx_noos_L1BPH-DR-2MU4-BPH-2M-2MU4");  ////0
alg->triggers.push_back("HLT_2mu4_bBmumu_L1BPH-DR-2MU4-BPH-4M8-2MU4");  ////0
alg->triggers.push_back("HLT_2mu4_bBmumuxv2_L1BPH-DR-2MU4-BPH-4M8-2MU4");  ////0
alg->triggers.push_back("HLT_2mu4_bBmumux_BcmumuDsloose_L1BPH-DR-2MU4-BPH-4M8-2MU4");  ////0
alg->triggers.push_back("HLT_2mu4_bDimu_L1BPH-DR-2MU4-BPH-4M8-2MU4");  ////0
alg->triggers.push_back("HLT_2mu4_bDimu_novtx_noos_L1BPH-DR-2MU4-BPH-4M8-2MU4");  ////0
alg->triggers.push_back("HLT_mu4_iloose_mu4_7invm9_noos_L1DY-BOX-2MU4");  ////0
alg->triggers.push_back("HLT_mu4_iloose_mu4_11invm60_noos_L1DY-BOX-2MU4");  ////0
alg->triggers.push_back("HLT_mu4_iloose_mu4_7invm9_noos_novtx_L1DY-BOX-2MU4");  ////0
alg->triggers.push_back("HLT_mu4_iloose_mu4_11invm60_noos_novtx_L1DY-BOX-2MU4");  ////0
alg->triggers.push_back("HLT_2mu4_bDimu_L1BPH-DR-2MU4-BPH-2M-2MU4");  ////0
alg->triggers.push_back("HLT_mu4_iloose_mu4_7invm9_noos_novtx");  ////0
alg->triggers.push_back("HLT_mu6_iloose_mu6_11invm60_noos_novtx");  ////0
alg->triggers.push_back("HLT_mu6_iloose_mu6_11invm24_noos_novtx");  ////0
alg->triggers.push_back("HLT_mu6_iloose_mu6_24invm60_noos_novtx");  ////0
alg->triggers.push_back("HLT_mu13_mu13_idperf_Zmumu");  ////0
alg->triggers.push_back("HLT_2mu6_l2msonly_bDimu_noL2");  ////0
alg->triggers.push_back("HLT_mu6_mu6_l2msonly_bDimu_noL2");  ////0
alg->triggers.push_back("HLT_2mu10_bDimu_noL2");  ////0
alg->triggers.push_back("HLT_2mu10_l2msonly_bDimu_noL2");  ////0
alg->triggers.push_back("HLT_mu10_mu10_l2msonly_bDimu_noL2");  ////0
alg->triggers.push_back("HLT_2mu4_bDimu_L1BPH-2M-2MU4");  ////0
alg->triggers.push_back("HLT_2mu4_bBmumu_L1BPH-DR-2MU4");  ////0
alg->triggers.push_back("HLT_2mu4_bBmumuxv2_L1BPH-DR-2MU4");  ////0
alg->triggers.push_back("HLT_2mu4_bBmumux_BcmumuDsloose_L1BPH-DR-2MU4");  ////0
alg->triggers.push_back("HLT_2mu4_bDimu_L1BPH-DR-2MU4");  ////0
alg->triggers.push_back("HLT_2mu4_bDimu_novtx_noos_L1BPH-DR-2MU4");  ////0
alg->triggers.push_back("HLT_2mu4_bJpsimumu_L1BPH-2M-2MU4");  ////0
alg->triggers.push_back("HLT_2mu4_bBmumu_L1BPH-2M-2MU4");  ////0
alg->triggers.push_back("HLT_2mu4_bUpsimumu_L1BPH-2M-2MU4");  ////0
alg->triggers.push_back("HLT_2mu4_bBmumuxv2_L1BPH-2M-2MU4");  ////0
alg->triggers.push_back("HLT_2mu4_bBmumux_BcmumuDsloose_L1BPH-2M-2MU4");  ////0
alg->triggers.push_back("HLT_2mu4_bJpsimumu_L1BPH-DR-2MU4");  ////0
alg->triggers.push_back("HLT_mu6_mu4_bJpsimumu_L1BPH-2M-MU6MU4-BO");  ////0
alg->triggers.push_back("HLT_mu6_mu4_bJpsimumu_L1BPH-DR-MU6MU4-BO");  ////0
alg->triggers.push_back("HLT_mu6_mu4_bBmumu_L1BPH-2M-MU6MU4-BO");  ////0
alg->triggers.push_back("HLT_mu6_mu4_bBmumu_L1BPH-4M8-MU6MU4-BO");  ////0
alg->triggers.push_back("HLT_mu6_mu4_bBmumu_L1BPH-DR-MU6MU4-BO");  ////0
alg->triggers.push_back("HLT_mu6_mu4_bUpsimumu_L1BPH-2M-MU6MU4-BO");  ////0
alg->triggers.push_back("HLT_mu6_mu4_bUpsimumu_L1BPH-DR-MU6MU4-BO");  ////0
alg->triggers.push_back("HLT_mu6_mu4_bBmumuxv2_L1BPH-2M-MU6MU4-BO");  ////0
alg->triggers.push_back("HLT_mu6_mu4_bBmumuxv2_L1BPH-4M8-MU6MU4-BO");  ////0
alg->triggers.push_back("HLT_mu6_mu4_bBmumuxv2_L1BPH-DR-MU6MU4-BO");  ////0
alg->triggers.push_back("HLT_2mu6_bJpsimumu_L1BPH-DR-2MU6");  ////0
alg->triggers.push_back("HLT_mu6_mu4_bBmumux_BcmumuDsloose_L1BPH-4M8-MU6MU4-BO");  ////0
alg->triggers.push_back("HLT_mu6_mu4_bBmumux_BcmumuDsloose_L1BPH-DR-MU6MU4-BO");  ////0
alg->triggers.push_back("HLT_mu6_mu4_bDimu_novtx_noos_L1BPH-2M-MU6MU4-BO");  ////0
alg->triggers.push_back("HLT_mu6_mu4_bDimu_novtx_noos_L1BPH-4M8-MU6MU4-BO");  ////0
alg->triggers.push_back("HLT_mu6_mu4_bDimu_novtx_noos_L1BPH-DR-MU6MU4-BO");  ////0
alg->triggers.push_back("HLT_mu6_mu4_bBmumux_BcmumuDsloose_L1BPH-2M-MU6MU4-BO");  ////0
alg->triggers.push_back("HLT_2mu4_bDimu_novtx_noos_L1BPH-DR-2MU4-BO-BPH-4M8-2MU4-BO");  ////0
alg->triggers.push_back("HLT_mu6_mu4_bDimu_L1BPH-2M-MU6MU4");  ////0
alg->triggers.push_back("HLT_mu6_mu4_bDimu_L1BPH-4M8-MU6MU4");  ////0
alg->triggers.push_back("HLT_mu6_mu4_bDimu_L1BPH-BPH-DR-MU6MU4");  ////0
alg->triggers.push_back("HLT_mu6_mu4_bJpsimumu_L1BPH-2M-MU6MU4");  ////0
alg->triggers.push_back("HLT_mu6_mu4_bJpsimumu_L1BPH-DR-MU6MU4");  ////0
alg->triggers.push_back("HLT_mu6_mu4_bBmumu_L1BPH-2M-MU6MU4");  ////0
alg->triggers.push_back("HLT_mu6_mu4_bBmumu_L1BPH-4M8-MU6MU4");  ////0
alg->triggers.push_back("HLT_mu6_mu4_bBmumu_L1BPH-DR-MU6MU4");  ////0
alg->triggers.push_back("HLT_mu6_mu4_bUpsimumu_L1BPH-DR-MU6MU4");  ////0
alg->triggers.push_back("HLT_mu6_mu4_bDimu_L1BPH-BPH-DR-MU6MU4-BO");  ////0
alg->triggers.push_back("HLT_mu6_mu4_bBmumuxv2_L1BPH-4M8-MU6MU4");  ////0
alg->triggers.push_back("HLT_mu6_mu4_bBmumuxv2_L1BPH-DR-MU6MU4");  ////0
alg->triggers.push_back("HLT_mu6_mu4_bBmumux_BcmumuDsloose_L1BPH-2M-MU6MU4-B");  ////0
alg->triggers.push_back("HLT_mu6_mu4_bBmumux_BcmumuDsloose_L1BPH-4M8-MU6MU4-B");  ////0
alg->triggers.push_back("HLT_mu6_mu4_bBmumux_BcmumuDsloose_L1BPH-DR-MU6MU4-B");  ////0
alg->triggers.push_back("HLT_mu6_mu4_bDimu_novtx_noos_L1BPH-2M-MU6MU4-B");  ////0
alg->triggers.push_back("HLT_mu6_mu4_bDimu_novtx_noos_L1BPH-4M8-MU6MU4-B");  ////0
alg->triggers.push_back("HLT_mu6_mu4_bDimu_novtx_noos_L1BPH-DR-MU6MU4-B");  ////0
alg->triggers.push_back("HLT_mu6_mu4_bDimu_L1BPH-2M-MU6MU4-BO");  ////0
alg->triggers.push_back("HLT_mu6_mu4_bDimu_L1BPH-4M8-MU6MU4-BO");  ////0
alg->triggers.push_back("HLT_mu6_mu4_bBmumuxv2_L1BPH-2M-MU6MU4");  ////0
alg->triggers.push_back("HLT_2mu6_bDimu_novtx_noos_L1BPH-DR-2MU6-BPH-2M-2MU6");  ////0
alg->triggers.push_back("HLT_2mu6_bBmumu_L1BPH-DR-2MU6-BPH-4M8-2MU6");  ////0
alg->triggers.push_back("HLT_2mu6_bBmumuxv2_L1BPH-DR-2MU6-BPH-4M8-2MU6");  ////0
alg->triggers.push_back("HLT_2mu6_bBmumux_BcmumuDsloose_L1BPH-DR-2MU6-BPH-4M8-2MU6");  ////0
alg->triggers.push_back("HLT_2mu6_bDimu_L1BPH-DR-2MU6-BPH-4M8-2MU6");  ////0
alg->triggers.push_back("HLT_2mu6_bDimu_novtx_noos_L1BPH-DR-2MU6-BPH-4M8-2MU6");  ////0
alg->triggers.push_back("HLT_mu6_iloose_mu6_11invm24_noos_L1DY-BOX-2MU6");  ////0
alg->triggers.push_back("HLT_mu6_iloose_mu6_24invm60_noos_L1DY-BOX-2MU6");  ////0
alg->triggers.push_back("HLT_mu6_iloose_mu6_11invm24_noos_novtx_L1DY-BOX-2MU6");  ////0
alg->triggers.push_back("HLT_mu6_iloose_mu6_24invm60_noos_novtx_L1DY-BOX-2MU6");  ////0
alg->triggers.push_back("HLT_2mu4_bDimu_L1BPH-DR-2MU4-BO-BPH-4M8-2MU4-BO");  ////0
alg->triggers.push_back("HLT_2mu4_bBmumu_L1BPH-DR-2MU4-B");  ////0
alg->triggers.push_back("HLT_2mu4_bBmumuxv2_L1BPH-DR-2MU4-B");  ////0
alg->triggers.push_back("HLT_2mu4_bBmumux_BcmumuDsloose_L1BPH-DR-2MU4-B");  ////0
alg->triggers.push_back("HLT_2mu4_bDimu_L1BPH-DR-2MU4-B");  ////0
alg->triggers.push_back("HLT_2mu4_bDimu_novtx_noos_L1BPH-DR-2MU4-B");  ////0
alg->triggers.push_back("HLT_2mu4_bJpsimumu_L1BPH-2M-2MU4-B");  ////0
alg->triggers.push_back("HLT_2mu4_bBmumu_L1BPH-2M-2MU4-B");  ////0
alg->triggers.push_back("HLT_2mu4_bUpsimumu_L1BPH-2M-2MU4-B");  ////0
alg->triggers.push_back("HLT_2mu4_bBmumuxv2_L1BPH-2M-2MU4-B");  ////0
alg->triggers.push_back("HLT_2mu4_bBmumux_BcmumuDsloose_L1BPH-2M-2MU4-B");  ////0
alg->triggers.push_back("HLT_2mu4_bJpsimumu_L1BPH-DR-2MU4-B");  ////0
alg->triggers.push_back("HLT_2mu6_bBmumu_L1BPH-DR-2MU6");  ////0
alg->triggers.push_back("HLT_2mu6_bBmumuxv2_L1BPH-DR-2MU6");  ////0
alg->triggers.push_back("HLT_2mu6_bBmumux_BcmumuDsloose_L1BPH-DR-2MU6");  ////0
alg->triggers.push_back("HLT_2mu6_bDimu_L1BPH-DR-2MU6");  ////0
alg->triggers.push_back("HLT_2mu6_bDimu_novtx_noos_L1BPH-DR-2MU6");  ////0
alg->triggers.push_back("HLT_2mu6_bJpsimumu_L1BPH-2M-2MU6");  ////0
alg->triggers.push_back("HLT_2mu6_bBmumu_L1BPH-2M-2MU6");  ////0
alg->triggers.push_back("HLT_2mu6_bUpsimumu_L1BPH-2M-2MU6");  ////0
alg->triggers.push_back("HLT_2mu6_bBmumuxv2_L1BPH-2M-2MU6");  ////0
alg->triggers.push_back("HLT_2mu6_bBmumux_BcmumuDsloose_L1BPH-2M-2MU6");  ////0
alg->triggers.push_back("HLT_2mu6_bDimu_L1BPH-DR-2MU6-BPH-2M-2MU6");  ////0
alg->triggers.push_back("HLT_2mu6_bDimu_novtx_noos_L1BPH-2M-2MU6");  ////0
alg->triggers.push_back("HLT_2mu6_bBmumu_L1BPH-4M8-2MU6");  ////0
alg->triggers.push_back("HLT_2mu6_bBmumuxv2_L1BPH-4M8-2MU6");  ////0
alg->triggers.push_back("HLT_2mu6_bBmumux_BcmumuDsloose_L1BPH-4M8-2MU6");  ////0
alg->triggers.push_back("HLT_2mu6_bDimu_L1BPH-4M8-2MU6");  ////0
alg->triggers.push_back("HLT_2mu6_bDimu_novtx_noos_L1BPH-4M8-2MU6");  ////0
alg->triggers.push_back("HLT_2mu6_bJpsimumu_L1BPH-DR-2MU6-BPH-2M-2MU6");  ////0
alg->triggers.push_back("HLT_2mu6_bBmumu_L1BPH-DR-2MU6-BPH-2M-2MU6");  ////0
alg->triggers.push_back("HLT_2mu6_bBmumuxv2_L1BPH-DR-2MU6-BPH-2M-2MU6");  ////0
alg->triggers.push_back("HLT_2mu6_bBmumux_BcmumuDsloose_L1BPH-DR-2MU6-BPH-2M-2MU6");  ////0
alg->triggers.push_back("HLT_2mu6_bDimu_L1BPH-2M-2MU6");  ////0
alg->triggers.push_back("HLT_2mu4_bJpsimumu_L1BPH-2M-2MU4-BO");  ////0
alg->triggers.push_back("HLT_2mu4_bBmumu_L1BPH-2M-2MU4-BO");  ////0
alg->triggers.push_back("HLT_2mu4_bUpsimumu_L1BPH-2M-2MU4-BO");  ////0
alg->triggers.push_back("HLT_2mu4_bBmumuxv2_L1BPH-2M-2MU4-BO");  ////0
alg->triggers.push_back("HLT_2mu4_bBmumux_BcmumuDsloose_L1BPH-2M-2MU4-BO");  ////0
alg->triggers.push_back("HLT_2mu4_bDimu_L1BPH-2M-2MU4-BO");  ////0
alg->triggers.push_back("HLT_2mu4_bDimu_novtx_noos_L1BPH-2M-2MU4-BO");  ////0
alg->triggers.push_back("HLT_2mu4_bBmumu_L1BPH-4M8-2MU4-BO");  ////0
alg->triggers.push_back("HLT_2mu4_bBmumuxv2_L1BPH-4M8-2MU4-BO");  ////0
alg->triggers.push_back("HLT_2mu4_bBmumux_BcmumuDsloose_L1BPH-4M8-2MU4-BO");  ////0
alg->triggers.push_back("HLT_2mu4_bDimu_L1BPH-2M-2MU4-B");  ////0
alg->triggers.push_back("HLT_2mu4_bDimu_novtx_noos_L1BPH-4M8-2MU4-BO");  ////0
alg->triggers.push_back("HLT_2mu4_bJpsimumu_L1BPH-DR-2MU4-BO-BPH-2M-2MU4-BO");  ////0
alg->triggers.push_back("HLT_2mu4_bBmumu_L1BPH-DR-2MU4-BO-BPH-2M-2MU4-BO");  ////0
alg->triggers.push_back("HLT_2mu4_bBmumuxv2_L1BPH-DR-2MU4-BO-BPH-2M-2MU4-BO");  ////0
alg->triggers.push_back("HLT_2mu4_bBmumux_BcmumuDsloose_L1BPH-DR-2MU4-BO-BPH-2M-2MU4-BO");  ////0
alg->triggers.push_back("HLT_2mu4_bDimu_L1BPH-DR-2MU4-BO-BPH-2M-2MU4-BO");  ////0
alg->triggers.push_back("HLT_2mu4_bDimu_novtx_noos_L1BPH-DR-2MU4-BO-BPH-2M-2MU4-BO");  ////0
alg->triggers.push_back("HLT_2mu4_bBmumu_L1BPH-DR-2MU4-BO-BPH-4M8-2MU4-BO");  ////0
alg->triggers.push_back("HLT_2mu4_bBmumuxv2_L1BPH-DR-2MU4-BO-BPH-4M8-2MU4-BO");  ////0
alg->triggers.push_back("HLT_2mu4_bBmumux_BcmumuDsloose_L1BPH-DR-2MU4-BO-BPH-4M8-2MU4-BO");  ////0
alg->triggers.push_back("HLT_2mu4_bDimu_L1BPH-4M8-2MU4-BO");  ////0
alg->triggers.push_back("HLT_2mu4_bDimu_novtx_noos_L1BPH-2M-2MU4-B");  ////0
alg->triggers.push_back("HLT_2mu4_bBmumu_L1BPH-4M8-2MU4-B");  ////0
alg->triggers.push_back("HLT_2mu4_bBmumuxv2_L1BPH-4M8-2MU4-B");  ////0
alg->triggers.push_back("HLT_2mu4_bBmumux_BcmumuDsloose_L1BPH-4M8-2MU4-B");  ////0
alg->triggers.push_back("HLT_2mu4_bDimu_L1BPH-4M8-2MU4-B");  ////0
alg->triggers.push_back("HLT_2mu4_bDimu_novtx_noos_L1BPH-4M8-2MU4-B");  ////0
alg->triggers.push_back("HLT_2mu4_bJpsimumu_L1BPH-DR-2MU4-B-BPH-2M-2MU4-B");  ////0
alg->triggers.push_back("HLT_2mu4_bBmumu_L1BPH-DR-2MU4-B-BPH-2M-2MU4-B");  ////0
alg->triggers.push_back("HLT_2mu4_bBmumuxv2_L1BPH-DR-2MU4-B-BPH-2M-2MU4-B");  ////0
alg->triggers.push_back("HLT_2mu4_bBmumux_BcmumuDsloose_L1BPH-DR-2MU4-B-BPH-2M-2MU4-B");  ////0
alg->triggers.push_back("HLT_2mu4_bDimu_novtx_noos_L1BPH-DR-2MU4-BO");  ////0
alg->triggers.push_back("HLT_2mu4_bDimu_novtx_noos_L1BPH-DR-2MU4-B-BPH-2M-2MU4-B");  ////0
alg->triggers.push_back("HLT_2mu4_bBmumu_L1BPH-DR-2MU4-B-BPH-4M8-2MU4-B");  ////0
alg->triggers.push_back("HLT_2mu4_bBmumuxv2_L1BPH-DR-2MU4-B-BPH-4M8-2MU4-B");  ////0
alg->triggers.push_back("HLT_2mu4_bBmumux_BcmumuDsloose_L1BPH-DR-2MU4-B-BPH-4M8-2MU4-B");  ////0
alg->triggers.push_back("HLT_2mu4_bDimu_L1BPH-DR-2MU4-B-BPH-4M8-2MU4-B");  ////0
alg->triggers.push_back("HLT_2mu4_bDimu_novtx_noos_L1BPH-DR-2MU4-B-BPH-4M8-2MU4-B");  ////0
alg->triggers.push_back("HLT_2mu4_bJpsimumu_L1BPH-DR-2MU4-BO");  ////0
alg->triggers.push_back("HLT_2mu4_bBmumu_L1BPH-DR-2MU4-BO");  ////0
alg->triggers.push_back("HLT_2mu4_bBmumuxv2_L1BPH-DR-2MU4-BO");  ////0
alg->triggers.push_back("HLT_2mu4_bBmumux_BcmumuDsloose_L1BPH-DR-2MU4-BO");  ////0
alg->triggers.push_back("HLT_2mu4_bDimu_L1BPH-DR-2MU4-BO");  ////0
alg->triggers.push_back("HLT_2mu4_bDimu_L1BPH-DR-2MU4-B-BPH-2M-2MU4-B");  ////0
alg->triggers.push_back("HLT_2mu4_bBmumuxv2_noL2");  ////0
alg->triggers.push_back("HLT_2mu4_bBmumux_BcmumuDsloose_noL2");  ////0
alg->triggers.push_back("HLT_2mu4_bBmumux_BpmumuKp_noL2");  ////0
alg->triggers.push_back("HLT_mu6_mu4_bBmumuxv2_noL2");  ////0
alg->triggers.push_back("HLT_mu6_mu4_bBmumux_BcmumuDsloose_noL2");  ////0
alg->triggers.push_back("HLT_2mu6_bBmumuxv2_noL2");  ////0
alg->triggers.push_back("HLT_2mu6_bBmumux_BcmumuDsloose_noL2");  ////0
alg->triggers.push_back("HLT_2mu6_bBmumux_BpmumuKp_noL2");  ////0
alg->triggers.push_back("HLT_mu10_mu6_bBmumuxv2_noL2");  ////0
alg->triggers.push_back("HLT_mu10_mu6_bBmumux_BcmumuDsloose_noL2");  ////0
alg->triggers.push_back("HLT_mu10_mu6_bBmumux_BpmumuKp_noL2");  ////0
alg->triggers.push_back("HLT_2mu10_bBmumuxv2_noL2");  ////0
alg->triggers.push_back("HLT_2mu10_bBmumux_BcmumuDsloose_noL2");  ////0
alg->triggers.push_back("HLT_2mu10_bBmumux_BpmumuKp_noL2");  ////0
alg->triggers.push_back("HLT_2mu4_bDimu_noEFbph");  ////0
alg->triggers.push_back("HLT_mu6_mu4_bBmumux_BpmumuKp_noL2");  ////0
alg->triggers.push_back("HLT_mu11_2mu4noL1_nscan03_L1MU10_2MU6");  ////0
alg->triggers.push_back("HLT_mu11_l2msonly_2mu4noL1_nscan03_l2msonly_L1MU10_2MU6");  ////0
alg->triggers.push_back("HLT_mu14_tau25_medium1_tracktwo_L1DR-MU10TAU12I_TAU12-J25");  ////0
alg->triggers.push_back("HLT_mu11_llns_2mu4noL1_nscan03_L1MU11_2MU6");  ////0
alg->triggers.push_back("HLT_e26_medium_L1EM22VHI_mu8noL1");  ////0
alg->triggers.push_back("HLT_e26_lhmedium_L1EM22VHI_mu8noL1");  ////0
alg->triggers.push_back("HLT_e26_lhmedium_nod0_L1EM22VHI_mu8noL1");  ////0
alg->triggers.push_back("HLT_e7_medium_mu24");  ////0
alg->triggers.push_back("HLT_e7_lhmedium_nod0_mu24");  ////0
alg->triggers.push_back("HLT_mu4_j15_dr05");  ////0
alg->triggers.push_back("HLT_e7_lhmedium_mu24");  ////0
alg->triggers.push_back("HLT_2e12_loose_mu10");  ////0
alg->triggers.push_back("HLT_2e12_lhloose_mu10");  ////0
alg->triggers.push_back("HLT_2e12_lhloose_nod0_mu10");  ////0
alg->triggers.push_back("HLT_2e12_medium_mu10");  ////0
alg->triggers.push_back("HLT_2e12_lhmedium_mu10");  ////0
alg->triggers.push_back("HLT_2e12_lhmedium_nod0_mu10");  ////0
alg->triggers.push_back("HLT_e24_lhmedium_nod0_L1EM20VHI_mu8noL1");  ////0
alg->triggers.push_back("HLT_e12_lhloose_2mu10");  ////0
alg->triggers.push_back("HLT_e12_lhloose_nod0_2mu10");  ////0
alg->triggers.push_back("HLT_e12_medium_2mu10");  ////0
alg->triggers.push_back("HLT_e12_lhmedium_2mu10");  ////0
alg->triggers.push_back("HLT_e12_lhmedium_nod0_2mu10");  ////0
alg->triggers.push_back("HLT_e17_loose_mu14");  ////0
alg->triggers.push_back("HLT_e17_lhloose_mu14");  ////0
alg->triggers.push_back("HLT_e17_lhloose_nod0_mu14");  ////0
alg->triggers.push_back("HLT_e24_medium_L1EM20VHI_mu8noL1");  ////0
alg->triggers.push_back("HLT_e24_lhmedium_L1EM20VHI_mu8noL1");  ////0
alg->triggers.push_back("HLT_e12_loose_2mu10");  ////0
alg->triggers.push_back("HLT_mu6_j110_bperf_split_dr05_dz02_L1BTAG-MU6J20");  ////0
alg->triggers.push_back("HLT_mu6_j150_bperf_split_dr05_dz02_L1BTAG-MU6J20");  ////0
alg->triggers.push_back("HLT_mu6_j175_bperf_split_dr05_dz02_L1BTAG-MU6J20");  ////0
alg->triggers.push_back("HLT_mu6_j260_bperf_split_dr05_dz02_L1BTAG-MU6J20");  ////0
alg->triggers.push_back("HLT_mu6_j320_bperf_split_dr05_dz02_L1BTAG-MU6J20");  ////0
alg->triggers.push_back("HLT_mu6_j400_bperf_split_dr05_dz02_L1BTAG-MU6J20");  ////0
alg->triggers.push_back("HLT_mu4_j25_dr05");  ////0
alg->triggers.push_back("HLT_2g10_loose_mu20");  ////0
alg->triggers.push_back("HLT_2g10_medium_mu20");  ////0
alg->triggers.push_back("HLT_j30_muvtx");  ////0
alg->triggers.push_back("HLT_j30_muvtx_L1MU4_EMPTY");  ////0
alg->triggers.push_back("HLT_j30_muvtx_L1MU4_UNPAIRED_ISO");  ////0
alg->triggers.push_back("HLT_mu4_j35_dr05");  ////0
alg->triggers.push_back("HLT_mu4_j55_dr05");  ////0
alg->triggers.push_back("HLT_mu6_j85_dr05");  ////0
alg->triggers.push_back("HLT_mu6_j110_dr05");  ////0
alg->triggers.push_back("HLT_mu6_j150_dr05");  ////0
alg->triggers.push_back("HLT_mu6_j175_dr05");  ////0
alg->triggers.push_back("HLT_mu6_j260_dr05");  ////0
alg->triggers.push_back("HLT_mu6_j320_dr05");  ////0
alg->triggers.push_back("HLT_mu6_j400_dr05");  ////0
alg->triggers.push_back("HLT_mu4_j15_bperf_split_dr05_dz02");  ////0
alg->triggers.push_back("HLT_mu6_j85_bperf_split_dr05_dz02_L1BTAG-MU6J20");  ////0
alg->triggers.push_back("HLT_mu4_j35_bperf_split_dr05_dz02");  ////0
alg->triggers.push_back("HLT_mu4_j55_bperf_split_dr05_dz02");  ////0
alg->triggers.push_back("HLT_mu6_j85_bperf_split_dr05_dz02");  ////0
alg->triggers.push_back("HLT_mu6_j110_bperf_split_dr05_dz02");  ////0
alg->triggers.push_back("HLT_mu6_j150_bperf_split_dr05_dz02");  ////0
alg->triggers.push_back("HLT_mu6_j175_bperf_split_dr05_dz02");  ////0
alg->triggers.push_back("HLT_mu6_j260_bperf_split_dr05_dz02");  ////0
alg->triggers.push_back("HLT_mu6_j320_bperf_split_dr05_dz02");  ////0
alg->triggers.push_back("HLT_mu6_j400_bperf_split_dr05_dz02");  ////0
alg->triggers.push_back("HLT_mu4_j35_bperf_split_dr05_dz02_L1BTAG-MU4J15");  ////0
alg->triggers.push_back("HLT_mu4_j55_bperf_split_dr05_dz02_L1BTAG-MU4J15");  ////0
alg->triggers.push_back("HLT_mu4_j25_bperf_split_dr05_dz02");  ////0
alg->triggers.push_back("HLT_mu6_2j40_0eta490_invm1000_L1MU6_J30.0ETA49_2J20.0ETA49");  ////0
alg->triggers.push_back("HLT_mu4_j70_dr05_L1MU4_J30");  ////0
alg->triggers.push_back("HLT_mu6_j60_dr05_L1MU6_J40");  ////0
alg->triggers.push_back("HLT_mu4_j70_dr05_L1MU4_J50");  ////0
alg->triggers.push_back("HLT_mu6_j60_dr05_L1BTAG-MU6J25");  ////0
alg->triggers.push_back("HLT_mu4_j70_dr05_L1BTAG-MU4J30");  ////0
alg->triggers.push_back("HLT_mu6_j50_dr05_2j35_L13J15_BTAG-MU6J25");  ////0
alg->triggers.push_back("HLT_mu4_j60_dr05_2j35_L13J15_BTAG-MU4J30");  ////0
alg->triggers.push_back("HLT_mu6_2j40_0eta490_invm1000");  ////0
alg->triggers.push_back("HLT_mu14_tau25_medium1_tracktwo_L1DR-MU10TAU12I");  ////0
alg->triggers.push_back("HLT_mu14_tau25_medium1_tracktwo_L1MU10_TAU12I-J25");  ////0
alg->triggers.push_back("HLT_mu6_2j40_0eta490_invm400");  ////0
alg->triggers.push_back("HLT_mu6_2j40_0eta490_invm600");  ////0
alg->triggers.push_back("HLT_mu6_2j40_0eta490_invm800");  ////0
alg->triggers.push_back("HLT_mu14_tau25_medium1_tracktwo_L1DR-MU10TAU12I_TAU12I-J25");  ////0
alg->triggers.push_back("HLT_mu14_iloose_tau25_perf_tracktwo");  ////0
alg->triggers.push_back("HLT_mu14_iloose_tau25_medium1_tracktwo_L1DR-MU10TAU12I_TAU12I-J25");  ////0
alg->triggers.push_back("HLT_mu14_iloose_tau25_medium1_tracktwo_L1DR-MU10TAU12I");  ////0
alg->triggers.push_back("HLT_mu14_iloose_tau25_medium1_tracktwo_L1MU10_TAU12I-J25");  ////0
alg->triggers.push_back("HLT_mu6_2j40_0eta490_invm800_L1MU6_J30.0ETA49_2J20.0ETA49");  ////0
alg->triggers.push_back("HLT_mu26_2j20noL1");  ////0
alg->triggers.push_back("HLT_mu26_3j20noL1");  ////0
alg->triggers.push_back("HLT_mu26_4j15noL1");  ////0
alg->triggers.push_back("HLT_mu26_5j15noL1");  ////0
alg->triggers.push_back("HLT_mu24_2j20noL1");  ////0
alg->triggers.push_back("HLT_mu24_3j20noL1");  ////0
alg->triggers.push_back("HLT_mu24_4j15noL1");  ////0
alg->triggers.push_back("HLT_mu24_5j15noL1");  ////0
alg->triggers.push_back("HLT_mu20_L1MU15_2j20noL1");  ////0
alg->triggers.push_back("HLT_mu20_L1MU15_4j15noL1");  ////0
alg->triggers.push_back("HLT_mu20_L1MU15_5j15noL1");  ////0
alg->triggers.push_back("HLT_mu20_L1MU15_3j20noL1");  ////0
alg->triggers.push_back("HLT_noalg_cosmicmuons_L1MU4_EMPTY");  ////0
alg->triggers.push_back("HLT_noalg_cosmicmuons_L1MU11_EMPTY");  ////0
alg->triggers.push_back("HLT_mu6_iloose_mu6_24invm60_noos");  ////0
alg->triggers.push_back("HLT_mu0_perf");  ////0
alg->triggers.push_back("HLT_mu50");  ////0
alg->triggers.push_back("HLT_mu60_0eta105_msonly");  ////0
alg->triggers.push_back("HLT_mu26");  ////0
alg->triggers.push_back("HLT_mu24_L1MU15");  ////0
alg->triggers.push_back("HLT_mu22");  ////0
alg->triggers.push_back("HLT_mu6_iloose_mu6_11invm24_noos");  ////0
alg->triggers.push_back("HLT_mu20_r1extr");  ////0
alg->triggers.push_back("HLT_mu10_r1extr");  ////0
alg->triggers.push_back("HLT_mu4_r1extr");  ////0
alg->triggers.push_back("HLT_mu24");  ////0
alg->triggers.push_back("HLT_mu20_msonly");  ////0
alg->triggers.push_back("HLT_mu10");  ////0
alg->triggers.push_back("HLT_mu10_msonly");  ////0
alg->triggers.push_back("HLT_mu6");  ////0
alg->triggers.push_back("HLT_mu6_msonly");  ////0
alg->triggers.push_back("HLT_mu4");  ////0
alg->triggers.push_back("HLT_mu20");  ////0
alg->triggers.push_back("HLT_2mu4_bUpsimumu");  ////0
alg->triggers.push_back("HLT_2mu4_bBmumu");  ////0
alg->triggers.push_back("HLT_mu6_mu4_bDimu_noinvm_novtx_ss");  ////0
alg->triggers.push_back("HLT_mu6_mu4_bUpsimumu");  ////0
alg->triggers.push_back("HLT_mu6_mu4_bBmumu");  ////0
alg->triggers.push_back("HLT_2mu6_bDimu_noinvm_novtx_ss");  ////0
alg->triggers.push_back("HLT_2mu6_bUpsimumu");  ////0
alg->triggers.push_back("HLT_2mu6_bBmumu");  ////0
alg->triggers.push_back("HLT_2mu10_bDimu");  ////0
alg->triggers.push_back("HLT_2mu10_bDimu_noinvm_novtx_ss");  ////0
alg->triggers.push_back("HLT_mu4_msonly");  ////0
alg->triggers.push_back("HLT_2mu10_bUpsimumu");  ////0
alg->triggers.push_back("HLT_2mu10_bBmumu");  ////0
alg->triggers.push_back("HLT_3mu4_bTau");  ////0
alg->triggers.push_back("HLT_3mu4_bUpsi");  ////0
alg->triggers.push_back("HLT_3mu6_bDimu");  ////0
alg->triggers.push_back("HLT_3mu6_bTau");  ////0
alg->triggers.push_back("HLT_3mu6_bUpsi");  ////0
alg->triggers.push_back("HLT_mu4_iloose_mu4_11invm60_noos");  ////0
alg->triggers.push_back("HLT_mu4_iloose_mu4_7invm9_noos");  ////0
alg->triggers.push_back("HLT_mu6_iloose_mu6_11invm60_noos");  ////0
alg->triggers.push_back("HLT_2mu10_bDimu_novtx_noos");  ////0
alg->triggers.push_back("HLT_mu24_idperf");  ////0
alg->triggers.push_back("HLT_mu10_idperf");  ////0
alg->triggers.push_back("HLT_mu6_idperf");  ////0
alg->triggers.push_back("HLT_mu4_idperf");  ////0
alg->triggers.push_back("HLT_mu24_L2Star_idperf");  ////0
alg->triggers.push_back("HLT_mu6_L2Star_idperf");  ////0
alg->triggers.push_back("HLT_3mu6");  ////0
alg->triggers.push_back("HLT_mu24_2mu4noL1");  ////0
alg->triggers.push_back("HLT_mu22_2mu4noL1");  ////0
alg->triggers.push_back("HLT_mu20_2mu4noL1");  ////0
alg->triggers.push_back("HLT_2mu4_bDimu_noinvm_novtx_ss");  ////0
alg->triggers.push_back("HLT_mu20_imedium_mu8noL1");  ////0
alg->triggers.push_back("HLT_mu20_iloose_mu8noL1");  ////0
alg->triggers.push_back("HLT_mu20_iloose_2mu4noL1");  ////0
alg->triggers.push_back("HLT_mu4_cosmic_L1MU4_EMPTY");  ////0
alg->triggers.push_back("HLT_mu4_cosmic_L1MU11_EMPTY");  ////0
alg->triggers.push_back("HLT_mu4_msonly_cosmic_L1MU4_EMPTY");  ////0
alg->triggers.push_back("HLT_mu4_msonly_cosmic_L1MU11_EMPTY");  ////0
alg->triggers.push_back("HLT_mu0_muoncalib");  ////0
alg->triggers.push_back("HLT_mu20_mucombTag_noEF_L1MU40");  ////0
alg->triggers.push_back("HLT_mu25_mucombTag_noEF_L1MU40");  ////0
alg->triggers.push_back("HLT_mu18_2mu4noL1");  ////0
alg->triggers.push_back("HLT_mu6_mu4_bDimu_noEFbph");  ////0
alg->triggers.push_back("HLT_mu14_tau25_medium1_tracktwo");  ////0
alg->triggers.push_back("HLT_mu14_tau35_medium1_tracktwo_L1TAU20");  ////0
alg->triggers.push_back("HLT_mu14_tau35_medium1_tracktwo");  ////0
alg->triggers.push_back("HLT_mu14_iloose_tau25_medium1_tracktwo");  ////0
alg->triggers.push_back("HLT_mu14_tau25_medium1_tracktwo_xe50");  ////0
alg->triggers.push_back("HLT_mu14_iloose_tau25_medium1_tracktwo_xe50");  ////0
alg->triggers.push_back("HLT_mu14_iloose_tau35_medium1_tracktwo");  ////0
