alg->triggers.push_back("HLT_mu0_perf");  ////9339
alg->triggers.push_back("HLT_mu4_idperf");  ////9156
alg->triggers.push_back("HLT_mu4_msonly");  ////8823
alg->triggers.push_back("HLT_mu4");  ////8813
alg->triggers.push_back("HLT_mu4_r1extr");  ////8800
alg->triggers.push_back("HLT_mu4_bJpsi_Trkloose");  ////7884
alg->triggers.push_back("HLT_mu6_L2Star_idperf");  ////7159
alg->triggers.push_back("HLT_mu6_idperf");  ////7159
alg->triggers.push_back("HLT_mu6_msonly");  ////6741
alg->triggers.push_back("HLT_mu6");  ////6083
alg->triggers.push_back("HLT_mu6_bJpsi_Trkloose");  ////5529
alg->triggers.push_back("HLT_2mu4");  ////4286
alg->triggers.push_back("HLT_2mu4_bDimu_novtx_noos");  ////4062
alg->triggers.push_back("HLT_2mu4_wOvlpRm_bDimu_novtx_noos");  ////4061
alg->triggers.push_back("HLT_mu4_mu4_l2msonly_bDimu_noL2");  ////3980
alg->triggers.push_back("HLT_2mu4_l2msonly_bDimu_noL2");  ////3973
alg->triggers.push_back("HLT_2mu4_bDimu_noL2");  ////3922
alg->triggers.push_back("HLT_mu4_mu4_l2msonly_bJpsimumu_noL2");  ////3907
alg->triggers.push_back("HLT_2mu4_l2msonly_bJpsimumu_noL2");  ////3901
alg->triggers.push_back("HLT_2mu4_bJpsimumu_noL2");  ////3856
alg->triggers.push_back("HLT_2mu4_muL2_bBmumuxv3");  ////3845
alg->triggers.push_back("HLT_2mu4_bDimu_novtx_noos_L1BPH-DR-2MU4");  ////3815
alg->triggers.push_back("HLT_2mu4_bDimu_novtx_noos_L1BPH-2M-2MU4");  ////3709
alg->triggers.push_back("HLT_2mu4_bDimu");  ////3705
alg->triggers.push_back("HLT_2mu4_wOvlpRm_bDimu");  ////3704
alg->triggers.push_back("HLT_2mu4_bJpsimumu");  ////3641
alg->triggers.push_back("HLT_2mu4_bDimu_L1BPH-DR-2MU4");  ////3557
alg->triggers.push_back("HLT_2mu4_bDimu_novtx_noos_L1BPH-DR-2MU4-BPH-2M-2MU4");  ////3545
alg->triggers.push_back("HLT_mu10_idperf");  ////3524
alg->triggers.push_back("HLT_2mu4_bJpsimumu_L1BPH-DR-2MU4");  ////3520
alg->triggers.push_back("HLT_2mu4_bBmumuxv3");  ////3507
alg->triggers.push_back("HLT_2mu4_bDimu_L1BPH-2M-2MU4");  ////3376
alg->triggers.push_back("HLT_2mu4_bJpsimumu_L1BPH-2M-2MU4");  ////3319
alg->triggers.push_back("HLT_mu6_mu4_bDimu_novtx_noos");  ////3310
alg->triggers.push_back("HLT_2mu4_bDimu_L1BPH-DR-2MU4-BPH-2M-2MU4");  ////3305
alg->triggers.push_back("HLT_2mu4_bJpsimumu_L1BPH-DR-2MU4-BPH-2M-2MU4");  ////3273
alg->triggers.push_back("HLT_mu6_l2msonly_mu4_l2msonly_bDimu_noL2");  ////3255
alg->triggers.push_back("HLT_2mu4_wOvlpRm_bBmumuxv2");  ////3245
alg->triggers.push_back("HLT_2mu4_bBmumuxv2");  ////3245
alg->triggers.push_back("HLT_mu6_mu4_l2msonly_bDimu_noL2");  ////3237
alg->triggers.push_back("HLT_mu6_l2msonly_mu4_bDimu_noL2");  ////3233
alg->triggers.push_back("HLT_mu6_muL2_mu4_muL2_bBmumuxv3");  ////3215
alg->triggers.push_back("HLT_mu6_mu4_bDimu_noL2");  ////3211
alg->triggers.push_back("HLT_mu6_l2msonly_mu4_l2msonly_bJpsimumu_noL2");  ////3204
alg->triggers.push_back("HLT_mu6_mu4_l2msonly_bJpsimumu_noL2");  ////3189
alg->triggers.push_back("HLT_mu6_l2msonly_mu4_bJpsimumu_noL2");  ////3183
alg->triggers.push_back("HLT_mu6_mu4_bJpsimumu_noL2");  ////3164
alg->triggers.push_back("HLT_2mu4_bBmumuxv2_L1BPH-DR-2MU4");  ////3136
alg->triggers.push_back("HLT_mu6_mu4_bDimu");  ////3041
alg->triggers.push_back("HLT_mu10_msonly");  ////3011
alg->triggers.push_back("HLT_mu6_mu4_bJpsimumu");  ////2993
alg->triggers.push_back("HLT_2mu4_bBmumuxv2_L1BPH-2M-2MU4");  ////2956
alg->triggers.push_back("HLT_2mu4_bBmumuxv2_L1BPH-DR-2MU4-BPH-2M-2MU4");  ////2916
alg->triggers.push_back("HLT_mu6_mu4_bDimu_L1BPH-BPH-DR-MU6MU4");  ////2906
alg->triggers.push_back("HLT_mu6_mu4_bBmumuxv3");  ////2879
alg->triggers.push_back("HLT_mu6_mu4_bJpsimumu_L1BPH-DR-MU6MU4");  ////2876
alg->triggers.push_back("HLT_mu4_j15_dr05");  ////2822
alg->triggers.push_back("HLT_mu6_mu4_bDimu_L1BPH-2M-MU6MU4");  ////2789
alg->triggers.push_back("HLT_mu4_mu4_idperf_bJpsimumu_noid");  ////2775
alg->triggers.push_back("HLT_mu6_mu4_bJpsimumu_L1BPH-2M-MU6MU4");  ////2746
alg->triggers.push_back("HLT_mu6_mu4_bBmumuxv2");  ////2657
alg->triggers.push_back("HLT_mu6_mu4_bBmumuxv2_L1BPH-DR-MU6MU4");  ////2551
alg->triggers.push_back("HLT_mu6_mu4_bBmumuxv2_L1BPH-2M-MU6MU4");  ////2436
alg->triggers.push_back("HLT_mu10");  ////2409
alg->triggers.push_back("HLT_mu10_r1extr");  ////2355
alg->triggers.push_back("HLT_mu10_bJpsi_Trkloose");  ////2222
alg->triggers.push_back("HLT_2mu4_bDimu_novtx_noos_L1BPH-DR-2MU4-B");  ////2150
alg->triggers.push_back("HLT_2mu4_bDimu_novtx_noos_L1BPH-2M-2MU4-B");  ////2143
alg->triggers.push_back("HLT_2mu4_bDimu_novtx_noos_L1BPH-DR-2MU4-B-BPH-2M-2MU4-B");  ////2025
alg->triggers.push_back("HLT_2mu4_bDimu_L1BPH-DR-2MU4-B");  ////2003
alg->triggers.push_back("HLT_2mu4_bJpsimumu_L1BPH-DR-2MU4-B");  ////1979
alg->triggers.push_back("HLT_2mu4_bDimu_L1BPH-2M-2MU4-B");  ////1926
alg->triggers.push_back("HLT_mu11");  ////1921
alg->triggers.push_back("HLT_2mu4_bJpsimumu_L1BPH-2M-2MU4-B");  ////1883
alg->triggers.push_back("HLT_2mu4_bDimu_L1BPH-DR-2MU4-B-BPH-2M-2MU4-B");  ////1883
alg->triggers.push_back("HLT_2mu4_bJpsimumu_L1BPH-DR-2MU4-B-BPH-2M-2MU4-B");  ////1861
alg->triggers.push_back("HLT_2mu4_bBmumux_BpmumuKp");  ////1815
alg->triggers.push_back("HLT_2mu4_bBmumuxv2_L1BPH-DR-2MU4-B");  ////1786
alg->triggers.push_back("HLT_mu6_mu4_bDimu_novtx_noos_L1BPH-DR-MU6MU4-B");  ////1730
alg->triggers.push_back("HLT_2mu4_bDimu_novtx_noos_L1BPH-DR-2MU4-BO");  ////1727
alg->triggers.push_back("HLT_mu6_mu4_bDimu_novtx_noos_L1BPH-2M-MU6MU4-B");  ////1726
alg->triggers.push_back("HLT_2mu4_bBmumuxv2_L1BPH-2M-2MU4-B");  ////1698
alg->triggers.push_back("HLT_2mu4_bDimu_novtx_noos_L1BPH-2M-2MU4-BO");  ////1680
alg->triggers.push_back("HLT_2mu4_bBmumuxv2_L1BPH-DR-2MU4-B-BPH-2M-2MU4-B");  ////1679
alg->triggers.push_back("HLT_2mu4_bDimu_novtx_noos_L1BPH-DR-2MU4-BO-BPH-2M-2MU4-BO");  ////1613
alg->triggers.push_back("HLT_2mu4_bDimu_L1BPH-DR-2MU4-BO");  ////1610
alg->triggers.push_back("HLT_2mu6");  ////1598
alg->triggers.push_back("HLT_2mu4_bJpsimumu_L1BPH-DR-2MU4-BO");  ////1592
alg->triggers.push_back("HLT_2mu4_bDimu_novtx_noos_L1BPH-4M8-2MU4");  ////1538
alg->triggers.push_back("HLT_2mu4_bDimu_L1BPH-2M-2MU4-BO");  ////1530
alg->triggers.push_back("HLT_2mu4_bDimu_novtx_noos_L1BPH-DR-2MU4-BPH-4M8-2MU4");  ////1529
alg->triggers.push_back("HLT_mu6_mu6_l2msonly_bDimu_noL2");  ////1516
alg->triggers.push_back("HLT_2mu6_l2msonly_bDimu_noL2");  ////1515
alg->triggers.push_back("HLT_2mu4_bJpsimumu_L1BPH-2M-2MU4-BO");  ////1504
alg->triggers.push_back("HLT_mu6_mu6_l2msonly_bJpsimumu_noL2");  ////1502
alg->triggers.push_back("HLT_2mu6_l2msonly_bJpsimumu_noL2");  ////1501
alg->triggers.push_back("HLT_2mu4_bDimu_L1BPH-DR-2MU4-BO-BPH-2M-2MU4-BO");  ////1500
alg->triggers.push_back("HLT_2mu6_muL2_bBmumuxv3");  ////1492
alg->triggers.push_back("HLT_2mu4_bJpsimumu_L1BPH-DR-2MU4-BO-BPH-2M-2MU4-BO");  ////1484
alg->triggers.push_back("HLT_mu6_mu4_bBmumux_BpmumuKp");  ////1478
alg->triggers.push_back("HLT_2mu6_bDimu_novtx_noos");  ////1468
alg->triggers.push_back("HLT_2mu6_bDimu_noL2");  ////1467
alg->triggers.push_back("HLT_2mu6_bJpsimumu_noL2");  ////1453
alg->triggers.push_back("HLT_2mu4_bBmumuxv2_L1BPH-DR-2MU4-BO");  ////1441
alg->triggers.push_back("HLT_2mu4_bDimu_L1BPH-4M8-2MU4");  ////1436
alg->triggers.push_back("HLT_2mu4_bDimu_L1BPH-DR-2MU4-BPH-4M8-2MU4");  ////1433
alg->triggers.push_back("HLT_mu6_mu4_bDimu_novtx_noos_L1BPH-DR-MU6MU4-BO");  ////1405
alg->triggers.push_back("HLT_2mu6_bDimu");  ////1398
alg->triggers.push_back("HLT_2mu6_bJpsimumu");  ////1381
alg->triggers.push_back("HLT_mu6_mu4_bDimu_novtx_noos_L1BPH-2M-MU6MU4-BO");  ////1378
alg->triggers.push_back("HLT_2mu6_bDimu_novtx_noos_L1BPH-2M-2MU6");  ////1364
alg->triggers.push_back("HLT_mu8_mucombTag_noEF_L1MU40");  ////1361
alg->triggers.push_back("HLT_2mu4_bBmumuxv2_L1BPH-2M-2MU4-BO");  ////1360
alg->triggers.push_back("HLT_2mu6_bDimu_novtx_noos_L1BPH-DR-2MU6");  ////1359
alg->triggers.push_back("HLT_2mu4_bBmumuxv2_L1BPH-DR-2MU4-BO-BPH-2M-2MU4-BO");  ////1343
alg->triggers.push_back("HLT_2mu6_bBmumuxv3");  ////1334
alg->triggers.push_back("HLT_mu6_mu4_bDimu_L1BPH-BPH-DR-MU6MU4-BO");  ////1313
alg->triggers.push_back("HLT_2mu6_bDimu_novtx_noos_L1BPH-DR-2MU6-BPH-2M-2MU6");  ////1310
alg->triggers.push_back("HLT_2mu6_bDimu_L1BPH-DR-2MU6");  ////1300
alg->triggers.push_back("HLT_2mu6_bDimu_L1BPH-2M-2MU6");  ////1298
alg->triggers.push_back("HLT_mu6_mu4_bJpsimumu_L1BPH-DR-MU6MU4-BO");  ////1296
alg->triggers.push_back("HLT_mu10_mucombTag_noEF_L1MU40");  ////1292
alg->triggers.push_back("HLT_2mu6_bJpsimumu_L1BPH-DR-2MU6");  ////1287
alg->triggers.push_back("HLT_2mu6_bJpsimumu_L1BPH-2M-2MU6");  ////1281
alg->triggers.push_back("HLT_2mu4_bBmumuxv2_L1BPH-DR-2MU4-BPH-4M8-2MU4");  ////1269
alg->triggers.push_back("HLT_2mu4_bBmumuxv2_L1BPH-4M8-2MU4");  ////1269
alg->triggers.push_back("HLT_mu6_mu4_bDimu_L1BPH-2M-MU6MU4-BO");  ////1265
alg->triggers.push_back("HLT_2mu6_bDimu_L1BPH-DR-2MU6-BPH-2M-2MU6");  ////1252
alg->triggers.push_back("HLT_mu6_mu4_bDimu_L1BPH-4M8-MU6MU4");  ////1252
alg->triggers.push_back("HLT_mu6_mu4_bJpsimumu_L1BPH-2M-MU6MU4-BO");  ////1243
alg->triggers.push_back("HLT_2mu6_bJpsimumu_L1BPH-DR-2MU6-BPH-2M-2MU6");  ////1239
alg->triggers.push_back("HLT_2mu6_bBmumuxv2");  ////1231
alg->triggers.push_back("HLT_mu6_mu4_bBmumuxv2_L1BPH-DR-MU6MU4-BO");  ////1167
alg->triggers.push_back("HLT_j0_perf_bperf_L1MU10");  ////1163
alg->triggers.push_back("HLT_mu4_j25_dr05");  ////1158
alg->triggers.push_back("HLT_2mu6_bBmumuxv2_L1BPH-DR-2MU6");  ////1146
alg->triggers.push_back("HLT_2mu6_bBmumuxv2_L1BPH-2M-2MU6");  ////1140
alg->triggers.push_back("HLT_mu6_mu4_bBmumuxv2_L1BPH-2M-MU6MU4-BO");  ////1120
alg->triggers.push_back("HLT_mu6_mu4_bBmumuxv2_L1BPH-4M8-MU6MU4");  ////1104
alg->triggers.push_back("HLT_2mu6_bBmumuxv2_L1BPH-DR-2MU6-BPH-2M-2MU6");  ////1103
alg->triggers.push_back("HLT_mu14");  ////979
alg->triggers.push_back("HLT_2mu4_bDimu_novtx_noos_L1BPH-4M8-2MU4-B");  ////960
alg->triggers.push_back("HLT_2mu4_bDimu_novtx_noos_L1BPH-DR-2MU4-B-BPH-4M8-2MU4-B");  ////956
alg->triggers.push_back("HLT_mu10_muL2_mu6_muL2_bBmumuxv3");  ////942
alg->triggers.push_back("HLT_2mu4_bBmumux_BcmumuDsloose");  ////910
alg->triggers.push_back("HLT_2mu4_bDimu_L1BPH-4M8-2MU4-B");  ////892
alg->triggers.push_back("HLT_2mu4_bDimu_L1BPH-DR-2MU4-B-BPH-4M8-2MU4-B");  ////889
alg->triggers.push_back("HLT_2mu4_bBmumux_BcmumuDsloose_L1BPH-DR-2MU4");  ////874
alg->triggers.push_back("HLT_2mu4_bBmumux_BcmumuDsloose_L1BPH-2M-2MU4");  ////821
alg->triggers.push_back("HLT_mu15_mucombTag_noEF_L1MU40");  ////817
alg->triggers.push_back("HLT_2mu4_bBmumux_BcmumuDsloose_L1BPH-DR-2MU4-BPH-2M-2MU4");  ////812
alg->triggers.push_back("HLT_mu6_mu4_bDimu_novtx_noos_L1BPH-4M8-MU6MU4-B");  ////810
alg->triggers.push_back("HLT_2mu4_bBmumuxv2_L1BPH-DR-2MU4-B-BPH-4M8-2MU4-B");  ////794
alg->triggers.push_back("HLT_2mu4_bBmumuxv2_L1BPH-4M8-2MU4-B");  ////794
alg->triggers.push_back("HLT_mu10_mu6_bBmumuxv2");  ////759
alg->triggers.push_back("HLT_mu20_idperf");  ////749
alg->triggers.push_back("HLT_mu14_iloose");  ////747
alg->triggers.push_back("HLT_mu6_mu4_bBmumux_BcmumuDsloose");  ////738
alg->triggers.push_back("HLT_2mu4_bDimu_novtx_noos_L1BPH-4M8-2MU4-BO");  ////734
alg->triggers.push_back("HLT_2mu4_bDimu_novtx_noos_L1BPH-DR-2MU4-BO-BPH-4M8-2MU4-BO");  ////731
alg->triggers.push_back("HLT_2mu6_bDimu_novtx_noos_L1BPH-DR-2MU6-BPH-4M8-2MU6");  ////703
alg->triggers.push_back("HLT_2mu6_bDimu_novtx_noos_L1BPH-4M8-2MU6");  ////703
alg->triggers.push_back("HLT_2mu4_bDimu_L1BPH-4M8-2MU4-BO");  ////684
alg->triggers.push_back("HLT_2mu4_bDimu_L1BPH-DR-2MU4-BO-BPH-4M8-2MU4-BO");  ////682
alg->triggers.push_back("HLT_2mu6_bDimu_L1BPH-DR-2MU6-BPH-4M8-2MU6");  ////679
alg->triggers.push_back("HLT_2mu6_bDimu_L1BPH-4M8-2MU6");  ////679
alg->triggers.push_back("HLT_2mu6_bBmumux_BpmumuKp");  ////679
alg->triggers.push_back("HLT_mu6_mu4_bDimu_novtx_noos_L1BPH-4M8-MU6MU4-BO");  ////629
alg->triggers.push_back("HLT_2mu4_bBmumuxv2_L1BPH-DR-2MU4-BO-BPH-4M8-2MU4-BO");  ////612
alg->triggers.push_back("HLT_2mu4_bBmumuxv2_L1BPH-4M8-2MU4-BO");  ////612
alg->triggers.push_back("HLT_mu4_j15_bperf_split_dr05_dz02");  ////603
alg->triggers.push_back("HLT_2mu6_bBmumuxv2_L1BPH-DR-2MU6-BPH-4M8-2MU6");  ////601
alg->triggers.push_back("HLT_2mu6_bBmumuxv2_L1BPH-4M8-2MU6");  ////601
alg->triggers.push_back("HLT_mu6_mu4_bDimu_L1BPH-4M8-MU6MU4-BO");  ////592
alg->triggers.push_back("HLT_mu24_L2Star_idperf");  ////559
alg->triggers.push_back("HLT_mu24_idperf");  ////559
alg->triggers.push_back("HLT_mu6_mu4_bBmumuxv2_L1BPH-4M8-MU6MU4-BO");  ////530
alg->triggers.push_back("HLT_2mu4_bBmumux_BcmumuDsloose_L1BPH-DR-2MU4-B");  ////507
alg->triggers.push_back("HLT_2mu4_bBmumux_BcmumuDsloose_L1BPH-2M-2MU4-B");  ////487
alg->triggers.push_back("HLT_2mu4_bBmumux_BcmumuDsloose_L1BPH-DR-2MU4-B-BPH-2M-2MU4-B");  ////481
alg->triggers.push_back("HLT_mu20_msonly");  ////459
alg->triggers.push_back("HLT_mu4_j25_bperf_split_dr05_dz02");  ////449
alg->triggers.push_back("HLT_mu18");  ////433
alg->triggers.push_back("HLT_mu6_l2msonly_2mu4_l2msonly_L1MU6_3MU4");  ////433
alg->triggers.push_back("HLT_mu10_mu6_bBmumux_BpmumuKp");  ////424
alg->triggers.push_back("HLT_mu18_bJpsi_Trkloose");  ////413
alg->triggers.push_back("HLT_2mu4_bBmumux_BcmumuDsloose_L1BPH-DR-2MU4-BO");  ////406
alg->triggers.push_back("HLT_mu6_mu4_bBmumux_BcmumuDsloose_L1BPH-DR-MU6MU4-B");  ////398
alg->triggers.push_back("HLT_2mu4_bBmumux_BcmumuDsloose_L1BPH-2M-2MU4-BO");  ////389
alg->triggers.push_back("HLT_mu20_mucombTag_noEF_L1MU40");  ////387
alg->triggers.push_back("HLT_mu6_mu4_bBmumux_BcmumuDsloose_L1BPH-2M-MU6MU4-B");  ////385
alg->triggers.push_back("HLT_2mu4_bBmumux_BcmumuDsloose_L1BPH-DR-2MU4-BO-BPH-2M-2MU4-BO");  ////384
alg->triggers.push_back("HLT_2mu4_bBmumux_BcmumuDsloose_L1BPH-4M8-2MU4");  ////365
alg->triggers.push_back("HLT_2mu4_bBmumux_BcmumuDsloose_L1BPH-DR-2MU4-BPH-4M8-2MU4");  ////365
alg->triggers.push_back("HLT_mu4_j35_dr05");  ////358
alg->triggers.push_back("HLT_mu4_iloose_mu4_11invm60_noos_novtx");  ////344
alg->triggers.push_back("HLT_2mu10_l2msonly");  ////344
alg->triggers.push_back("HLT_mu4_iloose_mu4_11invm60_noos_novtx_L1DY-BOX-2MU4");  ////344
alg->triggers.push_back("HLT_2mu6_bBmumux_BcmumuDsloose");  ////342
alg->triggers.push_back("HLT_mu18_2mu0noL1_JpsimumuFS");  ////336
alg->triggers.push_back("HLT_mu10_mu10_l2msonly_bDimu_noL2");  ////335
alg->triggers.push_back("HLT_2mu4_wOvlpRm_bDimu_noinvm_novtx_ss");  ////333
alg->triggers.push_back("HLT_2mu4_bDimu_noinvm_novtx_ss");  ////333
alg->triggers.push_back("HLT_2mu10_l2msonly_bDimu_noL2");  ////332
alg->triggers.push_back("HLT_mu10_mu10_l2msonly_bJpsimumu_noL2");  ////332
alg->triggers.push_back("HLT_2mu10_l2msonly_bJpsimumu_noL2");  ////329
alg->triggers.push_back("HLT_mu6_mu4_bBmumux_BcmumuDsloose_L1BPH-DR-MU6MU4-BO");  ////323
alg->triggers.push_back("HLT_mu20_L1MU15");  ////316
alg->triggers.push_back("HLT_2mu6_bBmumux_BcmumuDsloose_L1BPH-DR-2MU6");  ////315
alg->triggers.push_back("HLT_2mu6_bBmumux_BcmumuDsloose_L1BPH-2M-2MU6");  ////314
alg->triggers.push_back("HLT_mu20");  ////313
alg->triggers.push_back("HLT_mu6_mu4_bBmumux_BcmumuDsloose_L1BPH-2M-MU6MU4-BO");  ////313
alg->triggers.push_back("HLT_mu4_j35_bperf_split_dr05_dz02");  ////311
alg->triggers.push_back("HLT_mu20_msonly_mu6noL1_msonly_nscan05");  ////308
alg->triggers.push_back("HLT_2mu6_bBmumux_BcmumuDsloose_L1BPH-DR-2MU6-BPH-2M-2MU6");  ////306
alg->triggers.push_back("HLT_mu20_r1extr");  ////302
alg->triggers.push_back("HLT_2mu10_bDimu_noL2");  ////273
alg->triggers.push_back("HLT_2mu10_bJpsimumu_noL2");  ////271
alg->triggers.push_back("HLT_mu18_2mu4_JpsimumuL2");  ////268
alg->triggers.push_back("HLT_2mu10");  ////266
alg->triggers.push_back("HLT_mu6_mu4_bDimu_noinvm_novtx_ss");  ////265
alg->triggers.push_back("HLT_2mu10_bDimu_novtx_noos");  ////252
alg->triggers.push_back("HLT_3mu4_bDimu");  ////243
alg->triggers.push_back("HLT_mu20_2mu0noL1_JpsimumuFS");  ////242
alg->triggers.push_back("HLT_2mu6_l2msonly_mu4_l2msonly_L12MU6_3MU4");  ////242
alg->triggers.push_back("HLT_mu20_L1MU15_2j20noL1");  ////241
alg->triggers.push_back("HLT_2mu10_bDimu");  ////241
alg->triggers.push_back("HLT_2mu10_bJpsimumu");  ////239
alg->triggers.push_back("HLT_2mu4_bBmumux_BcmumuDsloose_L1BPH-DR-2MU4-B-BPH-4M8-2MU4-B");  ////239
alg->triggers.push_back("HLT_2mu4_bBmumux_BcmumuDsloose_L1BPH-4M8-2MU4-B");  ////239
alg->triggers.push_back("HLT_3mu4_bJpsi");  ////230
alg->triggers.push_back("HLT_mu22");  ////219
alg->triggers.push_back("HLT_2mu10_bBmumuxv2");  ////214
alg->triggers.push_back("HLT_mu10_mu6_bBmumux_BcmumuDsloose");  ////206
alg->triggers.push_back("HLT_mu6_mu4_bBmumux_BcmumuDsloose_L1BPH-4M8-MU6MU4-B");  ////191
alg->triggers.push_back("HLT_mu20_l2msonly_mu6noL1_nscan03_l2msonly");  ////191
alg->triggers.push_back("HLT_mu4_j35_bperf_split_dr05_dz02_L1BTAG-MU4J15");  ////190
alg->triggers.push_back("HLT_mu20_iloose_L1MU15");  ////187
alg->triggers.push_back("HLT_mu25_mucombTag_noEF_L1MU40");  ////187
alg->triggers.push_back("HLT_mu18_mu8noL1");  ////185
alg->triggers.push_back("HLT_mu20_2mu4_JpsimumuL2");  ////184
alg->triggers.push_back("HLT_2mu4_bBmumux_BcmumuDsloose_L1BPH-4M8-2MU4-BO");  ////183
alg->triggers.push_back("HLT_2mu4_bBmumux_BcmumuDsloose_L1BPH-DR-2MU4-BO-BPH-4M8-2MU4-BO");  ////183
alg->triggers.push_back("HLT_mu20_L1MU15_4j15noL1");  ////181
alg->triggers.push_back("HLT_mu20_mu6noL1_nscan03");  ////176
alg->triggers.push_back("HLT_3mu4_l2msonly");  ////176
alg->triggers.push_back("HLT_mu24_L1MU15");  ////168
alg->triggers.push_back("HLT_2mu6_bBmumux_BcmumuDsloose_L1BPH-DR-2MU6-BPH-4M8-2MU6");  ////166
alg->triggers.push_back("HLT_2mu6_bBmumux_BcmumuDsloose_L1BPH-4M8-2MU6");  ////166
alg->triggers.push_back("HLT_mu24");  ////166
alg->triggers.push_back("HLT_mu4_iloose_mu4_11invm60_noos");  ////161
alg->triggers.push_back("HLT_mu4_iloose_mu4_11invm60_noos_L1DY-BOX-2MU4");  ////160
alg->triggers.push_back("HLT_2mu14_l2msonly");  ////153
alg->triggers.push_back("HLT_mu20_L1MU15_3j20noL1");  ////151
alg->triggers.push_back("HLT_mu6_mu4_bBmumux_BcmumuDsloose_L1BPH-4M8-MU6MU4-BO");  ////149
alg->triggers.push_back("HLT_mu6_iloose_mu6_11invm60_noos_novtx");  ////141
alg->triggers.push_back("HLT_mu24_2j20noL1");  ////131
alg->triggers.push_back("HLT_mu20_mu8noL1");  ////129
alg->triggers.push_back("HLT_mu20_L1MU15_5j15noL1");  ////127
alg->triggers.push_back("HLT_3mu4");  ////126
alg->triggers.push_back("HLT_2mu10_bBmumux_BpmumuKp");  ////126
alg->triggers.push_back("HLT_mu26");  ////119
alg->triggers.push_back("HLT_2mu6_bDimu_noinvm_novtx_ss");  ////116
alg->triggers.push_back("HLT_mu6_iloose_mu6_11invm24_noos_novtx");  ////109
alg->triggers.push_back("HLT_mu6_iloose_mu6_11invm24_noos_novtx_L1DY-BOX-2MU6");  ////109
alg->triggers.push_back("HLT_mu24_4j15noL1");  ////104
alg->triggers.push_back("HLT_mu26_2j20noL1");  ////102
alg->triggers.push_back("HLT_mu22_mu8noL1");  ////92
alg->triggers.push_back("HLT_mu24_iloose_L1MU15");  ////86
alg->triggers.push_back("HLT_mu24_3j20noL1");  ////84
alg->triggers.push_back("HLT_mu26_4j15noL1");  ////83
alg->triggers.push_back("HLT_mu24_5j15noL1");  ////75
alg->triggers.push_back("HLT_mu14_iloose_tau25_perf_ptonly_L1MU10_TAU12IM");  ////74
alg->triggers.push_back("HLT_mu6_iloose_mu6_11invm60_noos");  ////69
alg->triggers.push_back("HLT_mu24_mu8noL1");  ////68
alg->triggers.push_back("HLT_xe35_mht_wEFMu_L1XE35_BGRP7");  ////68
alg->triggers.push_back("HLT_xe35_mht_wEFMu");  ////68
alg->triggers.push_back("HLT_2mu14");  ////67
alg->triggers.push_back("HLT_mu26_3j20noL1");  ////65
alg->triggers.push_back("HLT_mu24_imedium");  ////60
alg->triggers.push_back("HLT_mu26_5j15noL1");  ////57
alg->triggers.push_back("HLT_mu6_iloose_mu6_11invm24_noos_L1DY-BOX-2MU6");  ////56
alg->triggers.push_back("HLT_g10_etcut_mu10_L1LFV-EM8I");  ////56
alg->triggers.push_back("HLT_xe35_tc_lcw_wEFMu");  ////56
alg->triggers.push_back("HLT_xe35_pufit_wEFMu");  ////56
alg->triggers.push_back("HLT_mu6_iloose_mu6_11invm24_noos");  ////56
alg->triggers.push_back("HLT_xe35_tc_lcw_wEFMu_L1XE35_BGRP7");  ////56
alg->triggers.push_back("HLT_xe35_pufit_wEFMu_L1XE35_BGRP7");  ////56
alg->triggers.push_back("HLT_mu4_j55_dr05");  ////55
alg->triggers.push_back("HLT_3mu6_bDimu");  ////55
alg->triggers.push_back("HLT_mu6_2j40_0eta490_invm400_L1MU6_J30.0ETA49_2J20.0ETA49");  ////54
alg->triggers.push_back("HLT_mu20_iloose_mu8noL1");  ////53
alg->triggers.push_back("HLT_mu4_j55_bperf_split_dr05_dz02");  ////52
alg->triggers.push_back("HLT_2mu10_bBmumux_BcmumuDsloose");  ////52
alg->triggers.push_back("HLT_3mu6_bJpsi");  ////50
alg->triggers.push_back("HLT_xe35_pueta_wEFMu");  ////49
alg->triggers.push_back("HLT_xe35_pueta_wEFMu_L1XE35_BGRP7");  ////49
alg->triggers.push_back("HLT_3mu6_msonly");  ////46
alg->triggers.push_back("HLT_mu4_j55_bperf_split_dr05_dz02_L1BTAG-MU4J15");  ////46
alg->triggers.push_back("HLT_mu20_imedium_mu8noL1");  ////45
alg->triggers.push_back("HLT_g10_etcut_mu10_taumass");  ////41
alg->triggers.push_back("HLT_g10_etcut_L1EM8I_mu10_taumass");  ////41
alg->triggers.push_back("HLT_mu6_iloose_mu6_24invm60_noos_novtx");  ////37
alg->triggers.push_back("HLT_mu6_iloose_mu6_24invm60_noos_novtx_L1DY-BOX-2MU6");  ////37
alg->triggers.push_back("HLT_mu26_imedium");  ////35
alg->triggers.push_back("HLT_mu6_2j40_0eta490_invm600_L1MU6_J30.0ETA49_2J20.0ETA49");  ////35
alg->triggers.push_back("HLT_mu6_j60_dr05_L1MU6_J20");  ////31
alg->triggers.push_back("HLT_mu14_iloose_tau25_perf_tracktwo");  ////31
alg->triggers.push_back("HLT_xe35_tc_em_wEFMu");  ////30
alg->triggers.push_back("HLT_mu6_2j40_0eta490_invm400");  ////30
alg->triggers.push_back("HLT_xe35_tc_em_wEFMu_L1XE35_BGRP7");  ////30
alg->triggers.push_back("HLT_mu4_iloose_mu4_7invm9_noos_novtx");  ////27
alg->triggers.push_back("HLT_mu6_2j40_0eta490_invm800_L1MU6_J30.0ETA49_2J20.0ETA49");  ////27
alg->triggers.push_back("HLT_2mu4_bUpsimumu_L1BPH-2M-2MU4");  ////26
alg->triggers.push_back("HLT_2mu4_bUpsimumu");  ////26
alg->triggers.push_back("HLT_3mu6");  ////25
alg->triggers.push_back("HLT_mu6_j60_dr05_L1BTAG-MU6J25");  ////25
alg->triggers.push_back("HLT_mu4_iloose_mu4_7invm9_noos_novtx_L1DY-BOX-2MU4");  ////25
alg->triggers.push_back("HLT_2mu14_2j35_bperf");  ////24
alg->triggers.push_back("HLT_3mu6_wOvlpRm_bDimu");  ////23
alg->triggers.push_back("HLT_mu11_l2msonly_L1MU10_2mu4noL1_nscan03_l2msonly_L1MU10_2MU6");  ////23
alg->triggers.push_back("HLT_mu18_2mu4noL1");  ////23
alg->triggers.push_back("HLT_mu11_l2msonly_2mu4noL1_nscan03_l2msonly_L1MU11_2MU6");  ////23
alg->triggers.push_back("HLT_xe35_wEFMu");  ////22
alg->triggers.push_back("HLT_xe35_wEFMu_L1XE35_BGRP7");  ////22
alg->triggers.push_back("HLT_2mu4_bUpsimumu_L1BPH-2M-2MU4-B");  ////22
alg->triggers.push_back("HLT_xe35_l2fsperf_wEFMuFEB_wEFMu_L1XE35_BGRP7");  ////22
alg->triggers.push_back("HLT_xe35_l2fsperf_wEFMuFEB_wEFMu");  ////22
alg->triggers.push_back("HLT_mu4_2j35_dr05_j35_bmedium_split_L1MU4_3J15");  ////21
alg->triggers.push_back("HLT_mu4_2j35_dr05_j35_bmedium_split_L13J15_BTAG-MU4J15");  ////20
alg->triggers.push_back("HLT_mu11_L1MU10_2mu4noL1_nscan03_L1MU10_2MU6");  ////20
alg->triggers.push_back("HLT_mu11_L1MU10_2mu4noL1_nscan03");  ////20
alg->triggers.push_back("HLT_mu11_2mu4noL1_nscan03_L1MU11_2MU6");  ////19
alg->triggers.push_back("HLT_mu11_2mu4noL1_nscan03_L1MU11_LFV-MU");  ////19
alg->triggers.push_back("HLT_mu6_j60_dr05_L1MU6_J40");  ////19
alg->triggers.push_back("HLT_xe60_mht_wEFMu");  ////19
alg->triggers.push_back("HLT_g10_etcut_mu10_iloose_taumass_L1LFV-EM8I");  ////19
alg->triggers.push_back("HLT_xe60_mht_wEFMu_L1XE40_BGRP7");  ////19
alg->triggers.push_back("HLT_g10_etcut_L1EM8I_mu10_iloose_taumass");  ////19
alg->triggers.push_back("HLT_xe60_tc_lcw_wEFMu");  ////18
alg->triggers.push_back("HLT_xe60_pufit_wEFMu_L1XE40_BGRP7");  ////18
alg->triggers.push_back("HLT_xe60_pufit_wEFMu");  ////18
alg->triggers.push_back("HLT_xe60_tc_lcw_wEFMu_L1XE40_BGRP7");  ////18
alg->triggers.push_back("HLT_mu40");  ////18
alg->triggers.push_back("HLT_mu20_2mu4noL1");  ////16
alg->triggers.push_back("HLT_mu6_2j40_0eta490_invm1000_L1MU6_J30.0ETA49_2J20.0ETA49");  ////16
alg->triggers.push_back("HLT_mu4_2j40_dr05_j40_bloose_split_L1MU4_3J15");  ////16
alg->triggers.push_back("HLT_mu22_2mu4noL1");  ////15
alg->triggers.push_back("HLT_mu6_iloose_mu6_24invm60_noos_L1DY-BOX-2MU6");  ////15
alg->triggers.push_back("HLT_mu6_iloose_mu6_24invm60_noos");  ////15
alg->triggers.push_back("HLT_xe60_pueta_wEFMu_L1XE40_BGRP7");  ////15
alg->triggers.push_back("HLT_mu4_3j30_dr05_j30_bmedium_split_L1MU4_3J15");  ////15
alg->triggers.push_back("HLT_mu4_2j40_dr05_j40_bloose_split_L13J15_BTAG-MU4J15");  ////15
alg->triggers.push_back("HLT_xe60_pueta_wEFMu");  ////15
alg->triggers.push_back("HLT_mu6_2j40_0eta490_invm600");  ////14
alg->triggers.push_back("HLT_3mu4_bUpsi");  ////14
alg->triggers.push_back("HLT_2mu10_bDimu_noinvm_novtx_ss");  ////14
alg->triggers.push_back("HLT_mu4_3j30_dr05_j30_bmedium_split_L13J15_BTAG-MU4J15");  ////14
alg->triggers.push_back("HLT_mu6_mu4_bUpsimumu_L1BPH-2M-MU6MU4");  ////14
alg->triggers.push_back("HLT_mu6_mu4_bUpsimumu");  ////14
alg->triggers.push_back("HLT_mu4_j70_dr05_L1BTAG-MU4J30");  ////13
alg->triggers.push_back("HLT_mu4_j70_dr05_L1MU4_J30");  ////13
alg->triggers.push_back("HLT_mu4_3j45_dr05_L1MU4_3J15");  ////12
alg->triggers.push_back("HLT_mu24_2mu4noL1");  ////12
alg->triggers.push_back("HLT_g20_etcut_mu4_L1LFV-EM15I");  ////12
alg->triggers.push_back("HLT_mu14_tau25_medium1_tracktwo_L1DR-MU10TAU12I");  ////12
alg->triggers.push_back("HLT_mu4_3j45_dr05_L13J15_BTAG-MU4J15");  ////12
alg->triggers.push_back("HLT_mu6_j50_dr05_2j35_L1MU4_3J15");  ////11
alg->triggers.push_back("HLT_mu4_2j35_dr05_j35_bmedium_split_L1MU4_3J20");  ////11
alg->triggers.push_back("HLT_mu6_2j40_0eta490_invm800");  ////11
alg->triggers.push_back("HLT_mu6_j50_dr05_2j35_L13J15_BTAG-MU6J25");  ////10
alg->triggers.push_back("HLT_mu4_2j35_dr05_j35_bmedium_split_L13J20_BTAG-MU4J20");  ////10
alg->triggers.push_back("HLT_xe70_pufit_wEFMu_L1XE50_BGRP7");  ////10
alg->triggers.push_back("HLT_xe70_tc_lcw_wEFMu_L1XE50_BGRP7");  ////10
alg->triggers.push_back("HLT_xe70_pufit_wEFMu");  ////10
alg->triggers.push_back("HLT_xe70_tc_lcw_wEFMu");  ////10
alg->triggers.push_back("HLT_2mu4_bUpsimumu_L1BPH-2M-2MU4-BO");  ////10
alg->triggers.push_back("HLT_mu4_2j40_dr05_j40_bloose_split_L13J20_BTAG-MU4J20");  ////9
alg->triggers.push_back("HLT_mu4_3j45_dr05_L13J20_BTAG-MU4J20");  ////9
alg->triggers.push_back("HLT_mu4_3j45_dr05_L1MU4_3J20");  ////9
alg->triggers.push_back("HLT_mu20_iloose_2mu4noL1");  ////9
alg->triggers.push_back("HLT_mu4_2j40_dr05_j40_bloose_split_L1MU4_3J20");  ////9
alg->triggers.push_back("HLT_xe70_mht_wEFMu");  ////8
alg->triggers.push_back("HLT_mu4_j60_dr05_2j35_L1MU4_3J15");  ////8
alg->triggers.push_back("HLT_mu4_iloose_mu4_7invm9_noos");  ////8
alg->triggers.push_back("HLT_xe60_tc_em_wEFMu_L1XE40_BGRP7");  ////8
alg->triggers.push_back("HLT_mu4_3j35_dr05_j35_bloose_split_L1MU4_3J15");  ////8
alg->triggers.push_back("HLT_xe70_mht_wEFMu_L1XE50_BGRP7");  ////8
alg->triggers.push_back("HLT_mu4_iloose_mu4_7invm9_noos_L1DY-BOX-2MU4");  ////8
alg->triggers.push_back("HLT_mu50");  ////8
alg->triggers.push_back("HLT_xe60_tc_em_wEFMu");  ////8
alg->triggers.push_back("HLT_2mu4_bBmumu_L1BPH-2M-2MU4");  ////7
alg->triggers.push_back("HLT_mu26_imedium_2j35_bperf");  ////7
alg->triggers.push_back("HLT_2mu4_bBmumu");  ////7
alg->triggers.push_back("HLT_mu4_j60_dr05_2j35_L13J15_BTAG-MU4J30");  ////7
alg->triggers.push_back("HLT_mu4_j70_dr05_L1MU4_J50");  ////7
alg->triggers.push_back("HLT_mu6_j50_dr05_2j35_L1MU4_3J20");  ////7
alg->triggers.push_back("HLT_mu4_3j35_dr05_j35_bloose_split_L13J15_BTAG-MU4J15");  ////7
alg->triggers.push_back("HLT_xe80_pufit_wEFMu_L1XE50");  ////6
alg->triggers.push_back("HLT_xe80_tc_lcw_wEFMu_L1XE50");  ////6
alg->triggers.push_back("HLT_mu14_iloose_tau25_medium1_tracktwo_L1DR-MU10TAU12I");  ////6
alg->triggers.push_back("HLT_2mu4_bBmumu_L1BPH-4M8-2MU4");  ////6
alg->triggers.push_back("HLT_mu14_tau35_medium1_tracktwo_L1TAU20");  ////6
alg->triggers.push_back("HLT_mu4_3j30_dr05_j30_bmedium_split_L1MU4_3J20");  ////6
alg->triggers.push_back("HLT_xe80_tc_lcw_wEFMu_L1XE50_BGRP7");  ////6
alg->triggers.push_back("HLT_mu4_j60_dr05_2j35_L1MU4_3J20");  ////6
alg->triggers.push_back("HLT_g20_etcut_L1EM15I_mu4_taumass");  ////6
alg->triggers.push_back("HLT_g20_etcut_mu4_taumass");  ////6
alg->triggers.push_back("HLT_j30_muvtx_noiso");  ////6
alg->triggers.push_back("HLT_xe80_pufit_wEFMu_L1XE50_BGRP7");  ////6
alg->triggers.push_back("HLT_mu6_j85_bperf_split_dr05_dz02_L1BTAG-MU6J20");  ////5
alg->triggers.push_back("HLT_mu6_mu4_bUpsimumu_L1BPH-2M-MU6MU4-BO");  ////5
alg->triggers.push_back("HLT_mu6_j85_dr05");  ////5
alg->triggers.push_back("HLT_mu6_mu4_bBmumu_L1BPH-2M-MU6MU4");  ////5
alg->triggers.push_back("HLT_g15_loose_2mu10_msonly");  ////5
alg->triggers.push_back("HLT_2mu4_bBmumu_L1BPH-DR-2MU4-BPH-2M-2MU4");  ////5
alg->triggers.push_back("HLT_mu6_j85_bperf_split_dr05_dz02");  ////5
alg->triggers.push_back("HLT_xe60_wEFMu_L1XE40_BGRP7");  ////5
alg->triggers.push_back("HLT_mu14_tau25_medium1_tracktwo");  ////5
alg->triggers.push_back("HLT_mu4_3j35_dr05_j35_bloose_split_L1MU4_3J20");  ////5
alg->triggers.push_back("HLT_2mu4_bBmumu_L1BPH-DR-2MU4");  ////5
alg->triggers.push_back("HLT_2mu4_bBmumu_L1BPH-DR-2MU4-BPH-4M8-2MU4");  ////5
alg->triggers.push_back("HLT_mu4_3j30_dr05_j30_bmedium_split_L13J20_BTAG-MU4J20");  ////5
alg->triggers.push_back("HLT_mu6_mu4_bBmumu");  ////5
alg->triggers.push_back("HLT_xe60_wEFMu");  ////5
alg->triggers.push_back("HLT_xe80_pueta_wEFMu_L1XE50_BGRP7");  ////4
alg->triggers.push_back("HLT_mu14_tau35_medium1_tracktwo");  ////4
alg->triggers.push_back("HLT_e12_loose_2mu10");  ////4
alg->triggers.push_back("HLT_2mu4_bBmumu_L1BPH-2M-2MU4-B");  ////4
alg->triggers.push_back("HLT_mu6_mu4_bBmumu_L1BPH-4M8-MU6MU4");  ////4
alg->triggers.push_back("HLT_mu6_mu4_bBmumu_L1BPH-DR-MU6MU4");  ////4
alg->triggers.push_back("HLT_mu6_mu4_bUpsimumu_L1BPH-DR-MU6MU4");  ////4
alg->triggers.push_back("HLT_mu6_2j40_0eta490_invm1000");  ////4
alg->triggers.push_back("HLT_mu4_3j35_dr05_j35_bloose_split_L13J20_BTAG-MU4J20");  ////4
alg->triggers.push_back("HLT_xe70_pueta_wEFMu_L1XE50_BGRP7");  ////4
alg->triggers.push_back("HLT_xe70_pueta_wEFMu");  ////4
alg->triggers.push_back("HLT_xe80_mht_wEFMu_L1XE50_BGRP7");  ////4
alg->triggers.push_back("HLT_xe70_tc_em_wEFMu_L1XE50_BGRP7");  ////4
alg->triggers.push_back("HLT_xe80_pueta_wEFMu_L1XE50");  ////4
alg->triggers.push_back("HLT_xe70_tc_em_wEFMu");  ////4
alg->triggers.push_back("HLT_xe80_mht_wEFMu_L1XE50");  ////4
alg->triggers.push_back("HLT_mu14_tau25_medium1_tracktwo_L1DR-MU10TAU12I_TAU12I-J25");  ////3
alg->triggers.push_back("HLT_mu14_tau25_medium1_tracktwo_L1MU10_TAU12I-J25");  ////3
alg->triggers.push_back("HLT_mu14_iloose_tau35_medium1_tracktwo");  ////3
alg->triggers.push_back("HLT_mu6_j110_dr05");  ////3
alg->triggers.push_back("HLT_e7_medium_mu24");  ////3
alg->triggers.push_back("HLT_mu6_j110_bperf_split_dr05_dz02");  ////3
alg->triggers.push_back("HLT_mu6_j110_bperf_split_dr05_dz02_L1BTAG-MU6J20");  ////3
alg->triggers.push_back("HLT_2mu6_bBmumu_L1BPH-DR-2MU6");  ////3
alg->triggers.push_back("HLT_2mu6_bBmumu_L1BPH-2M-2MU6");  ////3
alg->triggers.push_back("HLT_2mu6_bUpsimumu_L1BPH-2M-2MU6");  ////3
alg->triggers.push_back("HLT_2mu6_bBmumu_L1BPH-4M8-2MU6");  ////3
alg->triggers.push_back("HLT_xe70_wEFMu_L1XE50_BGRP7");  ////3
alg->triggers.push_back("HLT_2mu6_bBmumu_L1BPH-DR-2MU6-BPH-2M-2MU6");  ////3
alg->triggers.push_back("HLT_2mu6_bBmumu_L1BPH-DR-2MU6-BPH-4M8-2MU6");  ////3
alg->triggers.push_back("HLT_xe80_pufit_wEFMu");  ////3
alg->triggers.push_back("HLT_xe80_tc_lcw_wEFMu_L1XE60_BGRP7");  ////3
alg->triggers.push_back("HLT_xe80_tc_lcw_wEFMu");  ////3
alg->triggers.push_back("HLT_xe80_pufit_wEFMu_L1XE60_BGRP7");  ////3
alg->triggers.push_back("HLT_2mu6_bUpsimumu");  ////3
alg->triggers.push_back("HLT_2mu6_bBmumu");  ////3
alg->triggers.push_back("HLT_2mu4_bBmumu_L1BPH-2M-2MU4-BO");  ////3
alg->triggers.push_back("HLT_xe70_wEFMu");  ////3
alg->triggers.push_back("HLT_mu60_0eta105_msonly");  ////3
alg->triggers.push_back("HLT_2mu4_bBmumu_L1BPH-4M8-2MU4-B");  ////3
alg->triggers.push_back("HLT_mu6_mu4_bBmumu_L1BPH-2M-MU6MU4-BO");  ////2
alg->triggers.push_back("HLT_xe80_mht_wEFMu");  ////2
alg->triggers.push_back("HLT_xe80_wEFMu_L1XE50");  ////2
alg->triggers.push_back("HLT_xe80_wEFMu_L1XE50_BGRP7");  ////2
alg->triggers.push_back("HLT_g20_etcut_L1EM15I_mu4_iloose_taumass");  ////2
alg->triggers.push_back("HLT_2mu4_bBmumu_L1BPH-DR-2MU4-B");  ////2
alg->triggers.push_back("HLT_xe80_pueta_wEFMu");  ////2
alg->triggers.push_back("HLT_2mu4_bBmumu_L1BPH-DR-2MU4-B-BPH-2M-2MU4-B");  ////2
alg->triggers.push_back("HLT_2mu4_bBmumu_L1BPH-DR-2MU4-B-BPH-4M8-2MU4-B");  ////2
alg->triggers.push_back("HLT_2mu4_bBmumu_L1BPH-4M8-2MU4-BO");  ////2
alg->triggers.push_back("HLT_e7_lhmedium_mu24");  ////2
alg->triggers.push_back("HLT_mu14_iloose_tau25_medium1_tracktwo");  ////2
alg->triggers.push_back("HLT_xe80_pufit_wEFMu_L1XE70_BGRP7");  ////2
alg->triggers.push_back("HLT_e7_lhmedium_nod0_mu24");  ////2
alg->triggers.push_back("HLT_xe80_tc_lcw_wEFMu_L1XE70_BGRP7");  ////2
alg->triggers.push_back("HLT_xe80_pufit_wEFMu_L1XE70");  ////2
alg->triggers.push_back("HLT_g20_etcut_mu4_iloose_taumass_L1LFV-EM15I");  ////2
alg->triggers.push_back("HLT_xe80_tc_lcw_wEFMu_L1XE70");  ////2
alg->triggers.push_back("HLT_xe80_mht_wEFMu_L1XE60_BGRP7");  ////2
alg->triggers.push_back("HLT_mu4_4j40_dr05_L1MU4_3J15");  ////2
alg->triggers.push_back("HLT_xe80_pueta_wEFMu_L1XE60_BGRP7");  ////2
alg->triggers.push_back("HLT_3mu6_bUpsi");  ////1
alg->triggers.push_back("HLT_2mu4_bBmumu_L1BPH-DR-2MU4-BO-BPH-2M-2MU4-BO");  ////1
alg->triggers.push_back("HLT_g20_loose_mu4_iloose_taumass_L1LFV-EM15I");  ////1
alg->triggers.push_back("HLT_2mu4_bBmumu_L1BPH-DR-2MU4-BO");  ////1
alg->triggers.push_back("HLT_2mu10_bUpsimumu");  ////1
alg->triggers.push_back("HLT_mu4_j40_dr05_3j40_L14J20");  ////1
alg->triggers.push_back("HLT_mu4_4j40_dr05_L1MU4_3J20");  ////1
alg->triggers.push_back("HLT_2mu4_bBmumu_L1BPH-DR-2MU4-BO-BPH-4M8-2MU4-BO");  ////1
alg->triggers.push_back("HLT_mu4_4j40_dr05_L13J15_BTAG-MU4J15");  ////1
alg->triggers.push_back("HLT_g35_loose_L1EM22VHI_mu15noL1_mu2noL1");  ////1
alg->triggers.push_back("HLT_g20_loose_L1EM15I_mu4_iloose_taumass");  ////1
alg->triggers.push_back("HLT_mu4_4j40_dr05_L13J20_BTAG-MU4J20");  ////1
alg->triggers.push_back("HLT_mu14_iloose_tau25_medium1_tracktwo_L1MU10_TAU12I-J25");  ////1
alg->triggers.push_back("HLT_mu14_iloose_tau25_medium1_tracktwo_L1DR-MU10TAU12I_TAU12I-J25");  ////1
alg->triggers.push_back("HLT_mu4_3j35_dr05_j35_bloose_split_L14J20");  ////1
alg->triggers.push_back("HLT_mu4_3j30_dr05_j30_bmedium_split_L14J20");  ////1
alg->triggers.push_back("HLT_mu6_j175_bperf_split_dr05_dz02");  ////1
alg->triggers.push_back("HLT_xe80_tc_em_wEFMu_L1XE50_BGRP7");  ////1
alg->triggers.push_back("HLT_xe80_tc_em_wEFMu_L1XE50");  ////1
alg->triggers.push_back("HLT_mu6_j150_bperf_split_dr05_dz02_L1BTAG-MU6J20");  ////1
alg->triggers.push_back("HLT_mu6_j175_bperf_split_dr05_dz02_L1BTAG-MU6J20");  ////1
alg->triggers.push_back("HLT_xe100_mht_wEFMu_L1XE80");  ////1
alg->triggers.push_back("HLT_xe100_mht_wEFMu_L1XE80_BGRP7");  ////1
alg->triggers.push_back("HLT_g25_medium_mu24");  ////1
alg->triggers.push_back("HLT_xe120_mht_wEFMu");  ////1
alg->triggers.push_back("HLT_xe120_mht_wEFMu_L1XE80_BGRP7");  ////1
alg->triggers.push_back("HLT_xe100_mht_wEFMu");  ////1
alg->triggers.push_back("HLT_mu6_j150_dr05");  ////1
alg->triggers.push_back("HLT_mu6_j175_dr05");  ////1
alg->triggers.push_back("HLT_mu6_j150_bperf_split_dr05_dz02");  ////1
alg->triggers.push_back("HLT_xe80_pueta_wEFMu_L1XE70_BGRP7");  ////1
alg->triggers.push_back("HLT_xe80_mht_wEFMu_L1XE70_BGRP7");  ////1
alg->triggers.push_back("HLT_xe80_pueta_wEFMu_L1XE70");  ////1
alg->triggers.push_back("HLT_xe80_mht_wEFMu_L1XE70");  ////1
alg->triggers.push_back("HLT_2g10_loose_mu20");  ////1
alg->triggers.push_back("HLT_mu6_mu4_bUpsimumu_L1BPH-DR-MU6MU4-BO");  ////1
alg->triggers.push_back("HLT_mu6_mu4_bBmumu_L1BPH-DR-MU6MU4-BO");  ////1
