
Processing /cvmfs/atlas.cern.ch/repo/sw/software/21.2/AnalysisBase/21.2.73/InstallArea/x86_64-slc6-gcc62-opt/scripts/load_packages.C...
xAOD::Init                INFO    Environment initialised for data access
Processing ATestRunSubmitBplus.C...
SampleHandler with 1 files
Sample:name=data18_13TeV.periodAllYear.physics_Main.PhysCont.DAOD_BPHY5.grp18_v01_p3704
 nc_grid=data18_13TeV.periodAllYear.physics_Main.PhysCont.DAOD_BPHY5.grp18_v01_p3704
 nc_grid_filter=*.root*

Submitting data18_13TeV.periodAllYear.physics_Main.PhysCont.DAOD_BPHY5.grp18_v01_p3704...
[?1034h