alg->triggers.push_back("L1_MU6_2MU4");  ////148122341
alg->triggers.push_back("L1_2MU6");  ////123840879
alg->triggers.push_back("L1_MU10_2MU6");  ////104063695
alg->triggers.push_back("L1_MU11_2MU6");  ////91688813
alg->triggers.push_back("L1_BPH-2M8-MU6MU4_BPH-0DR15-MU6MU4");  ////67868592
alg->triggers.push_back("L1_BPH-2M8-2MU4");  ////63285230
alg->triggers.push_back("L1_MU20");  ////58754867
alg->triggers.push_back("L1_2MU10");  ////55646417
alg->triggers.push_back("HLT_2mu4_bJpsimumu_L1BPH-2M8-2MU4");  ////53887817
alg->triggers.push_back("HLT_2mu6_bJpsimumu_delayed");  ////52533655
alg->triggers.push_back("L1_BPH-2M9-2MU6_BPH-2DR15-2MU6");  ////46809060
alg->triggers.push_back("L1_LFV-MU");  ////44466114
alg->triggers.push_back("HLT_mu6_mu4_bBmumuxv2_delayed");  ////43872793
alg->triggers.push_back("HLT_mu6_mu4_bJpsimumu_Lxy0_delayed");  ////42114575
alg->triggers.push_back("HLT_2mu6_bBmumuxv2_delayed");  ////41047823
alg->triggers.push_back("HLT_mu6_mu4_bJpsimumu");  ////39630711
alg->triggers.push_back("HLT_2mu6_bJpsimumu_Lxy0_delayed");  ////38195860
alg->triggers.push_back("HLT_mu6_mu4_bJpsimumu_L1BPH-2M8-MU6MU4_BPH-0DR15-MU6MU4");  ////38161346
alg->triggers.push_back("HLT_mu10_mu6_bJpsimumu_delayed");  ////34857082
alg->triggers.push_back("L1_MU6_2MU4-B");  ////31391473
alg->triggers.push_back("L1_MU6_3MU4");  ////31092785
alg->triggers.push_back("HLT_2mu6_bJpsimumu");  ////30798792
alg->triggers.push_back("L1_MU6MU4-BO");  ////28198636
alg->triggers.push_back("HLT_mu10_mu6_bBmumuxv2_delayed");  ////28046604
alg->triggers.push_back("HLT_mu6_mu4_bJpsimumu_Lxy0");  ////27113996
alg->triggers.push_back("HLT_mu10_mu6_bJpsimumu_Lxy0_delayed");  ////26065249
alg->triggers.push_back("HLT_mu6_mu4_bJpsimumu_Lxy0_delayed_L1BPH-2M8-MU6MU4_BPH-0DR15-MU6MU4");  ////25787910
alg->triggers.push_back("HLT_mu6_mu4_bBmumuxv2");  ////25629071
alg->triggers.push_back("L1_2MU6_3MU4");  ////24623675
alg->triggers.push_back("HLT_mu6_mu4_bJpsimumu_L12MU4-B");  ////24184280
alg->triggers.push_back("HLT_2mu6_bBmumuxv2");  ////22761531
alg->triggers.push_back("HLT_mu6_mu4_bJpsimumu_delayed");  ////22344506
alg->triggers.push_back("HLT_mu6_mu4_bBmumux_BpmumuKp");  ////22097506
alg->triggers.push_back("HLT_2mu6_bJpsimumu_Lxy0");  ////21925232
alg->triggers.push_back("HLT_mu10_mu6_bJpsimumu");  ////21332603
alg->triggers.push_back("HLT_2mu10_bJpsimumu_noL2");  ////20136561
alg->triggers.push_back("L1_EM8I_MU10");  ////19735431
alg->triggers.push_back("HLT_mu20_2mu0noL1_JpsimumuFS");  ////19710408
alg->triggers.push_back("HLT_2mu6_bBmumux_BpmumuKp");  ////19665049
alg->triggers.push_back("L1_3MU4");  ////16960449
alg->triggers.push_back("HLT_mu6_mu4_bJpsimumu_L1MU6MU4-BO");  ////16030687
alg->triggers.push_back("HLT_mu20_nomucomb_mu6noL1_nscan03");  ////16029703
alg->triggers.push_back("HLT_mu10_mu6_bJpsimumu_Lxy0");  ////15758559
alg->triggers.push_back("HLT_mu6_mu4_bJpsimumu_delayed_L1MU6MU4-BO");  ////15735608
alg->triggers.push_back("HLT_2mu10_bJpsimumu");  ////15286175
alg->triggers.push_back("HLT_2mu10_bJpsimumu_delayed");  ////15270221
alg->triggers.push_back("HLT_mu20_2mu4_JpsimumuL2");  ////15006263
alg->triggers.push_back("HLT_mu10_mu6_bBmumuxv2");  ////13821152
alg->triggers.push_back("HLT_2mu6_bJpsimumu_L1BPH-2M9-2MU6_BPH-2DR15-2MU6");  ////13273894
alg->triggers.push_back("HLT_2mu6_bJpsimumu_delayed_L1BPH-2M9-2MU6_BPH-2DR15-2MU6");  ////13151007
alg->triggers.push_back("L1_BPH-1M19-2MU4-BO_BPH-0DR34-2MU4");  ////13091038
alg->triggers.push_back("HLT_mu6_2mu4_bJpsi_delayed");  ////13003447
alg->triggers.push_back("L1_3MU6");  ////12699581
alg->triggers.push_back("L1_2MU4");  ////12552652
alg->triggers.push_back("HLT_2mu10_bBmumuxv2");  ////12500012
alg->triggers.push_back("HLT_2mu10_bBmumuxv2_delayed");  ////12486478
alg->triggers.push_back("L1_MU10_2J15_J20");  ////11880973
alg->triggers.push_back("HLT_mu10_mu6_bBmumux_BpmumuKp");  ////11734086
alg->triggers.push_back("L1_MU10_TAU20IM");  ////11543389
alg->triggers.push_back("HLT_mu6_mu4_bBmumuxv2_delayed_L1MU6MU4-BO");  ////11383617
alg->triggers.push_back("L1_MU10_2J20");  ////11134681
alg->triggers.push_back("L1_MU10_TAU12IM_J25_2J12");  ////10862386
alg->triggers.push_back("HLT_mu10_mu6_bBmumuxv2_noL2");  ////10283611
alg->triggers.push_back("HLT_mu6_2mu4_bJpsi");  ////10219336
alg->triggers.push_back("HLT_2mu6_bBmumux_BcmumuDsloose_delayed");  ////10130636
alg->triggers.push_back("HLT_2mu6_bBmumuxv2_delayed_L1BPH-2M9-2MU6_BPH-2DR15-2MU6");  ////9594659
alg->triggers.push_back("HLT_3mu4_bJpsi_delayed");  ////9400091
alg->triggers.push_back("HLT_2mu6_bJpsimumu_Lxy0_delayed_L1BPH-2M9-2MU6_BPH-2DR15-2MU6");  ////9215268
alg->triggers.push_back("HLT_3mu4_bJpsi");  ////9046635
alg->triggers.push_back("HLT_3mu4_bDimu");  ////8877025
alg->triggers.push_back("HLT_mu6_mu4_bBmumux_BcmumuDsloose_delayed");  ////8620118
alg->triggers.push_back("L1_EM15VH_MU10");  ////8568681
alg->triggers.push_back("HLT_mu22_mu8noL1");  ////8437976
alg->triggers.push_back("L1_EM15I_MU4");  ////8276253
alg->triggers.push_back("HLT_mu6_mu4_bJpsimumu_delayed_L1BPH-2M8-MU6MU4_BPH-0DR15-MU6MU4");  ////8150195
alg->triggers.push_back("L1_2MU20_OVERLAY");  ////8090322
alg->triggers.push_back("HLT_mu4_mu4_idperf_bJpsimumu_noid");  ////8053715
alg->triggers.push_back("HLT_mu6_nomucomb_2mu4_nomucomb_delayed_L1MU6_3MU4");  ////8004139
alg->triggers.push_back("L1_EM22VHI");  ////7451138
alg->triggers.push_back("HLT_mu10_mu6_bBmumux_BcmumuDsloose_delayed");  ////7409659
alg->triggers.push_back("L1_EM24VHI");  ////7162909
alg->triggers.push_back("L1_MU15");  ////6814780
alg->triggers.push_back("L1_TAU60");  ////6745648
alg->triggers.push_back("HLT_mu24_mu8noL1");  ////6653847
alg->triggers.push_back("L1_MU6_J40");  ////6602445
alg->triggers.push_back("L1_LFV-EM8I");  ////6531989
alg->triggers.push_back("HLT_3mu6_msonly");  ////6042906
alg->triggers.push_back("L1_EM15VH_3EM7");  ////6015195
alg->triggers.push_back("L1_MU6_J30.0ETA49_2J20.0ETA49");  ////5757615
alg->triggers.push_back("L1_J100");  ////5737832
alg->triggers.push_back("L1_XE50");  ////5624628
alg->triggers.push_back("HLT_2mu14");  ////5606944
alg->triggers.push_back("L1_EM15HI_TAU40_2TAU15");  ////5597949
alg->triggers.push_back("HLT_3mu6_bJpsi");  ////5579833
alg->triggers.push_back("HLT_2mu14_nomucomb");  ////5522693
alg->triggers.push_back("L1_LFV-EM15I");  ////5508062
alg->triggers.push_back("HLT_mu20_l2idonly_mu6noL1_nscan03");  ////5504334
alg->triggers.push_back("L1_2EM8VH_MU10");  ////5491383
alg->triggers.push_back("L1_TAU20IM_2TAU12IM_J25_2J20_3J12");  ////5435735
alg->triggers.push_back("HLT_3mu4_nomucomb_delayed");  ////5431001
alg->triggers.push_back("HLT_mu26_mu8noL1");  ////5186493
alg->triggers.push_back("L1_EM13VH_3J20");  ////5153739
alg->triggers.push_back("HLT_j0_perf_ds1_L1J100");  ////4968297
alg->triggers.push_back("HLT_2mu6_bBmumux_BcmumuDsloose");  ////4963616
alg->triggers.push_back("L1_MU6_J75");  ////4934575
alg->triggers.push_back("HLT_mu6_mu4_bBmumux_BcmumuDsloose");  ////4915137
alg->triggers.push_back("HLT_mu6_mu4_bBmumux_BcmumuDsloose_L1BPH-2M8-MU6MU4_BPH-0DR15-MU6MU4");  ////4806131
alg->triggers.push_back("HLT_mu6_mu4_bBmumux_BcmumuDsloose_delayed_L1BPH-2M8-MU6MU4_BPH-0DR15-MU6MU4");  ////4806131
alg->triggers.push_back("HLT_mu10_mu6_bBmumuxv2_delayed_L1LFV-MU");  ////4724324
alg->triggers.push_back("L1_J75_3J20");  ////4688672
alg->triggers.push_back("HLT_3mu4");  ////4676738
alg->triggers.push_back("L1_MU10_TAU12IM_XE35");  ////4640095
alg->triggers.push_back("L1_BPH-8M15-2MU6");  ////4519170
alg->triggers.push_back("L1_3J25.0ETA23");  ////4500313
alg->triggers.push_back("L1_J120");  ////4494127
alg->triggers.push_back("L1_TAU40");  ////4403391
alg->triggers.push_back("HLT_mu6_2mu4");  ////4265595
alg->triggers.push_back("HLT_mu20_mu8noL1");  ////4264534
alg->triggers.push_back("HLT_2mu15");  ////4250347
alg->triggers.push_back("L1_4J15");  ////4226896
alg->triggers.push_back("L1_MU6_J20");  ////4206646
alg->triggers.push_back("HLT_2mu6_bBmumux_BcmumuDsloose_delayed_L1BPH-2M9-2MU6_BPH-2DR15-2MU6");  ////4205119
alg->triggers.push_back("L1_TAU20IM_2J20_XE45");  ////4177537
alg->triggers.push_back("L1_EM15HI_2TAU12IM_J25_3J12");  ////3927141
alg->triggers.push_back("L1_TAU20IM_2TAU12IM_XE35");  ////3926373
alg->triggers.push_back("L1_4J15.0ETA25");  ////3682862
alg->triggers.push_back("L1_2J15_XE55");  ////3603698
alg->triggers.push_back("L1_J75");  ////3522271
alg->triggers.push_back("L1_2EM15VH");  ////3517410
alg->triggers.push_back("HLT_mu26_ivarmedium");  ////3502558
alg->triggers.push_back("L1_MU10_3J20");  ////3487942
alg->triggers.push_back("L1_EM20VHI");  ////3486059
alg->triggers.push_back("L1_XE55");  ////3446469
alg->triggers.push_back("HLT_mu10_mu6_bBmumux_BcmumuDsloose");  ////3424420
alg->triggers.push_back("L1_2MU4-B");  ////3399738
alg->triggers.push_back("HLT_2mu10_bBmumux_BcmumuDsloose");  ////3373981
alg->triggers.push_back("HLT_2mu10_bBmumux_BcmumuDsloose_delayed");  ////3370197
alg->triggers.push_back("L1_XE60");  ////3336748
alg->triggers.push_back("HLT_mu6_mu4_bBmumux_BsmumuPhi_delayed");  ////3327369
alg->triggers.push_back("L1_EM15HI_2TAU12IM_XE35");  ////3103190
alg->triggers.push_back("HLT_mu11_nomucomb_2mu4noL1_nscan03_L1MU11_2MU6");  ////3025546
alg->triggers.push_back("L1_J40_XE50");  ////2989972
alg->triggers.push_back("L1_J75_XE40");  ////2987179
alg->triggers.push_back("L1_4J20");  ////2956573
alg->triggers.push_back("HLT_mu6_mu4_bJpsimumu_Lxy0_L1BPH-2M8-MU6MU4_BPH-0DR15-MU6MU4");  ////2864613
alg->triggers.push_back("HLT_mu6_mu4_bBmumux_BsmumuPhi_delayed_L1BPH-2M8-MU6MU4_BPH-0DR15-MU6MU4");  ////2835213
alg->triggers.push_back("HLT_mu24_ivarmedium");  ////2654286
alg->triggers.push_back("HLT_mu24_imedium");  ////2613776
alg->triggers.push_back("L1_MU6");  ////2578614
alg->triggers.push_back("L1_2J50_XE40");  ////2544207
alg->triggers.push_back("L1_TAU20_2TAU12_XE35");  ////2536004
alg->triggers.push_back("HLT_mu28_ivarmedium");  ////2526374
alg->triggers.push_back("L1_MU10_TAU20IM_J25_2J20");  ////2524097
alg->triggers.push_back("L1_2EM13VH");  ////2504801
alg->triggers.push_back("HLT_mu26_imedium");  ////2432632
alg->triggers.push_back("HLT_2mu6_bBmumux_BsmumuPhi_delayed");  ////2396020
alg->triggers.push_back("HLT_2mu14_2j35_boffperf");  ////2313737
alg->triggers.push_back("HLT_2mu14_2j35_bperf");  ////2313737
alg->triggers.push_back("HLT_mu6_mu4_bDimu");  ////2142493
alg->triggers.push_back("HLT_3mu6");  ////2132291
alg->triggers.push_back("L1_DR-MU10TAU12I_TAU12I-J25");  ////2097637
alg->triggers.push_back("L1_3J50");  ////2093702
alg->triggers.push_back("L1_TAU40_2TAU20IM");  ////2086682
alg->triggers.push_back("L1_XE70");  ////2077308
alg->triggers.push_back("HLT_2mu6_bBmumux_BcmumuDsloose_L1BPH-2M9-2MU6_BPH-2DR15-2MU6");  ////1963565
alg->triggers.push_back("HLT_2mu14_2j35_bperf_split");  ////1954106
alg->triggers.push_back("HLT_2mu14_2j35_boffperf_split");  ////1954106
alg->triggers.push_back("HLT_mu20_2mu4noL1");  ////1953517
alg->triggers.push_back("HLT_2mu6_bJpsimumu_Lxy0_L1BPH-2M9-2MU6_BPH-2DR15-2MU6");  ////1943563
alg->triggers.push_back("L1_3J20");  ////1886069
alg->triggers.push_back("HLT_mu6_bJpsi_Trkloose");  ////1799349
alg->triggers.push_back("HLT_2mu6_bBmumux_BsmumuPhi_delayed_L1BPH-2M9-2MU6_BPH-2DR15-2MU6");  ////1739884
alg->triggers.push_back("HLT_2mu6_bBmumux_BsmumuPhi_L1BPH-2M9-2MU6_BPH-2DR15-2MU6");  ////1739884
alg->triggers.push_back("HLT_mu28_imedium");  ////1726795
alg->triggers.push_back("HLT_2mu6_bDimu");  ////1722480
alg->triggers.push_back("L1_2MU4_J40_XE20");  ////1718134
alg->triggers.push_back("HLT_2mu10");  ////1616444
alg->triggers.push_back("HLT_2mu10_nomucomb");  ////1602108
alg->triggers.push_back("HLT_j0_perf_ds1_L1J75");  ////1576056
alg->triggers.push_back("HLT_mu10_mu6_bBmumux_BsmumuPhi_delayed");  ////1565183
alg->triggers.push_back("HLT_mu22_2mu4noL1");  ////1480264
alg->triggers.push_back("L1_EM15HI_TAU20IM_2TAU15_J25_2J20_3J15");  ////1467074
alg->triggers.push_back("L1_5J15.0ETA25");  ////1448820
alg->triggers.push_back("HLT_mu50");  ////1432740
alg->triggers.push_back("HLT_mu20_ivarmedium_L1MU10_2J15_J20");  ////1373738
alg->triggers.push_back("L1_XE80");  ////1339182
alg->triggers.push_back("HLT_mu20_ivarmedium_L1MU10_2J20");  ////1301220
alg->triggers.push_back("L1_3J15.0ETA25");  ////1289093
alg->triggers.push_back("L1_J40_XE60");  ////1273423
alg->triggers.push_back("L1_MU4");  ////1247308
alg->triggers.push_back("HLT_mu11_nomucomb_mu6noL1_nscan03_L1MU11_2MU6_bTau_delayed");  ////1227645
alg->triggers.push_back("HLT_mu11_nomucomb_2mu4noL1_nscan03_L1LFV-MU");  ////1222015
alg->triggers.push_back("HLT_mu24_2mu4noL1");  ////1173491
alg->triggers.push_back("HLT_2mu6_bDimu_novtx_noos");  ////1158041
alg->triggers.push_back("L1_DR-TAU20ITAU12I");  ////1140601
alg->triggers.push_back("L1_DR-TAU20ITAU12I-J25");  ////1118003
alg->triggers.push_back("L1_EM15VH_3EM8VH");  ////1103602
alg->triggers.push_back("L1_3J15");  ////1101189
alg->triggers.push_back("HLT_mu6_mu4_bBmumux_BsmumuPhi_L1BPH-2M8-MU6MU4_BPH-0DR15-MU6MU4");  ////1097548
alg->triggers.push_back("HLT_mu6_mu4_bDimu_novtx_noos");  ////1057024
alg->triggers.push_back("L1_MU4_J50_XE40");  ////1056588
alg->triggers.push_back("HLT_2mu20_L12MU20_OVERLAY");  ////997296
alg->triggers.push_back("L1_J40.0ETA25_XE50");  ////988778
alg->triggers.push_back("L1_MU10");  ////972202
alg->triggers.push_back("HLT_j380_lcw_jes");  ////946850
alg->triggers.push_back("HLT_j30_muvtx_noiso");  ////935399
alg->triggers.push_back("HLT_mu20_imedium_L1MU10_2J20");  ////928688
alg->triggers.push_back("HLT_mu6_mu4_bBmumuxv2_delayed_L1BPH-2M8-MU6MU4_BPH-0DR15-MU6MU4");  ////901196
alg->triggers.push_back("HLT_j380_jes");  ////889347
alg->triggers.push_back("HLT_xe110_mht_L1XE50");  ////878549
alg->triggers.push_back("HLT_j380_lcw");  ////859233
alg->triggers.push_back("HLT_mu26_imedium_2j35_boffperf");  ////846875
alg->triggers.push_back("HLT_mu26_imedium_2j35_bperf");  ////846875
alg->triggers.push_back("HLT_mu18_bJpsi_Trkloose");  ////838131
alg->triggers.push_back("HLT_j380");  ////836247
alg->triggers.push_back("HLT_xe90_mht_L1XE50");  ////830609
alg->triggers.push_back("HLT_j460_a10_lcw_nojcalib_L1J100");  ////827115
alg->triggers.push_back("HLT_2mu4_bBmumux_BsmumuPhi_delayed_L1BPH-2M8-2MU4");  ////826854
alg->triggers.push_back("HLT_mu11_nomucomb_mu6noL1_nscan03_L1MU11_2MU6_bTau");  ////825184
alg->triggers.push_back("HLT_j420_a10_lcw_L1J100");  ////825041
alg->triggers.push_back("L1_J40.0ETA25_2J25_J20.31ETA49");  ////822141
alg->triggers.push_back("L1_2EM10VH");  ////812594
alg->triggers.push_back("HLT_j380_lcw_nojcalib");  ////805859
alg->triggers.push_back("HLT_j0_0i1c500m2000TLA_delayed");  ////800107
alg->triggers.push_back("HLT_j420_a10r_L1J100");  ////787323
alg->triggers.push_back("HLT_mu6_mu4_bBmumu");  ////781713
alg->triggers.push_back("HLT_j400_lcw_jes");  ////773531
alg->triggers.push_back("L1_DY-BOX-2MU6");  ////763760
alg->triggers.push_back("HLT_2mu4_j85_xe50_mht");  ////739101
alg->triggers.push_back("HLT_j400_jes");  ////728082
alg->triggers.push_back("HLT_g15_loose_2mu10_msonly");  ////721561
alg->triggers.push_back("HLT_mu26_imedium_2j35_bperf_split");  ////720878
alg->triggers.push_back("HLT_mu26_imedium_2j35_boffperf_split");  ////720878
alg->triggers.push_back("HLT_j400_lcw");  ////704169
alg->triggers.push_back("HLT_mu4_bJpsi_Trkloose");  ////696945
alg->triggers.push_back("L1_MU4_J12");  ////695698
alg->triggers.push_back("HLT_j400");  ////686185
alg->triggers.push_back("HLT_j440_a10_lcw_L1J100");  ////685884
alg->triggers.push_back("HLT_j55_bmv2c2060_split_ht500_L14J15");  ////683724
alg->triggers.push_back("HLT_mu10_mu6_bBmumuxv2_L1LFV-MU");  ////675811
alg->triggers.push_back("HLT_xe110_mht_L1XE55");  ////672547
alg->triggers.push_back("L1_J85");  ////664550
alg->triggers.push_back("HLT_mu14_ivarloose_3j20_L1MU10_3J20");  ////663084
alg->triggers.push_back("HLT_j400_lcw_nojcalib");  ////659761
alg->triggers.push_back("HLT_mu6_iloose_mu6_24invm60_noos");  ////656577
alg->triggers.push_back("HLT_j440_a10r_L1J100");  ////654999
alg->triggers.push_back("L1_MU10_TAU12IM");  ////649455
alg->triggers.push_back("L1_6J15");  ////639102
alg->triggers.push_back("HLT_3mu6_bDimu");  ////636318
alg->triggers.push_back("HLT_j420_lcw_jes");  ////634356
alg->triggers.push_back("HLT_mu10_bJpsi_Trkloose");  ////632761
alg->triggers.push_back("HLT_xe110_mht_wEFMu_L1XE50");  ////632285
alg->triggers.push_back("HLT_2mu10_bDimu_noL2");  ////613171
alg->triggers.push_back("HLT_j420_jes");  ////598211
alg->triggers.push_back("HLT_mu24_iloose");  ////596250
alg->triggers.push_back("HLT_xe100_mht_L1XE50");  ////592524
alg->triggers.push_back("HLT_2mu4_bJpsimumu_Lxy0_delayed_L1BPH-2M8-2MU4");  ////587827
alg->triggers.push_back("HLT_2mu6_10invm30_pt2_z10");  ////581936
alg->triggers.push_back("HLT_j420_lcw");  ////579732
alg->triggers.push_back("HLT_j460_a10_lcw_L1J100");  ////570252
alg->triggers.push_back("HLT_mu11_nomucomb_mu6noL1_nscan03_L1LFV-MU_bTau_delayed");  ////567762
alg->triggers.push_back("HLT_2j35_bmv2c2060_split_2j35_L14J15.0ETA25");  ////567077
alg->triggers.push_back("HLT_j420");  ////564568
alg->triggers.push_back("HLT_mu6_mu4_bBmumu_Lxy0");  ////559326
alg->triggers.push_back("HLT_xe90_mht_wEFMu_L1XE50");  ////556750
alg->triggers.push_back("HLT_j460_a10r_L1J100");  ////545284
alg->triggers.push_back("HLT_j420_lcw_nojcalib");  ////541856
alg->triggers.push_back("HLT_mu24_ivarloose");  ////536245
alg->triggers.push_back("HLT_xe120_mht_L1XE50");  ////535960
alg->triggers.push_back("HLT_mu6_iloose_mu6_11invm24_noos");  ////532590
alg->triggers.push_back("HLT_xe80_tc_lcw_L1XE50");  ////530379
alg->triggers.push_back("L1_2EM15");  ////518372
alg->triggers.push_back("L1_EM15VH_2EM10VH_3EM7");  ////507644
alg->triggers.push_back("HLT_mu14_iloose_3j20_L1MU10_3J20");  ////491347
alg->triggers.push_back("HLT_j460_a10_lcw_sub_L1J100");  ////485434
alg->triggers.push_back("HLT_j55_bmv2c2050_split_ht500_L14J15");  ////475914
alg->triggers.push_back("HLT_mu40");  ////474801
alg->triggers.push_back("HLT_j440");  ////466866
alg->triggers.push_back("HLT_ht1000_L1J100");  ////462066
alg->triggers.push_back("L1_EM12_2EM3");  ////457768
alg->triggers.push_back("HLT_xe110_mht_wEFMu_L1XE55");  ////450976
alg->triggers.push_back("HLT_2mu4_bJpsimumu_delayed_L1BPH-2M8-2MU4");  ////441750
alg->triggers.push_back("HLT_4j100");  ////436263
alg->triggers.push_back("HLT_xe100_mht_L1XE60");  ////432218
alg->triggers.push_back("HLT_mu20_msonly_mu10noL1_msonly_nscan05_noComb");  ////417481
alg->triggers.push_back("HLT_2mu6_bBmumu");  ////409937
alg->triggers.push_back("HLT_xe120_mht_L1XE55");  ////406313
alg->triggers.push_back("HLT_j175_bmv2c2040_split");  ////400126
alg->triggers.push_back("HLT_mu20_msonly_mu15noL1_msonly_nscan05_noComb");  ////399808
alg->triggers.push_back("HLT_6j45_0eta240");  ////399152
alg->triggers.push_back("HLT_mu6_2mu4_bUpsi_delayed");  ////392400
alg->triggers.push_back("L1_EM20VH");  ////391418
alg->triggers.push_back("HLT_j30_xe60_razor195");  ////390108
alg->triggers.push_back("HLT_j460");  ////389340
alg->triggers.push_back("HLT_xe100_mht_wEFMu_L1XE50");  ////387047
alg->triggers.push_back("HLT_j75_bmv2c2070_split_3j75_L14J15.0ETA25");  ////384352
alg->triggers.push_back("HLT_j400_a10_lcw_L1J100");  ////383926
alg->triggers.push_back("HLT_xe100_L1XE50");  ////381816
alg->triggers.push_back("HLT_2mu6_bBmumux_Taumumux");  ////378769
alg->triggers.push_back("HLT_xe90_mht_L1XE55");  ////378251
alg->triggers.push_back("HLT_xe100_L1XE60");  ////375703
alg->triggers.push_back("HLT_2j35_bmv2c2060_split_2j35_L14J15");  ////374725
alg->triggers.push_back("L1_3J40");  ////373257
alg->triggers.push_back("HLT_xe120_mht_wEFMu_L1XE50");  ////373136
alg->triggers.push_back("HLT_mu6_2mu4_bUpsi");  ////371520
alg->triggers.push_back("HLT_j225_bmv2c2060_split");  ////366379
alg->triggers.push_back("HLT_j225_gsc400_boffperf_split");  ////365378
alg->triggers.push_back("HLT_j400_a10r_L1J100");  ////364979
alg->triggers.push_back("HLT_5j65_0eta240_L14J15");  ////361695
alg->triggers.push_back("HLT_5j65_0eta240");  ////360692
alg->triggers.push_back("HLT_2j45_bmv2c2077_split_3j45_L14J15.0ETA25");  ////357103
alg->triggers.push_back("HLT_6j45_0eta240_L14J20");  ////355910
alg->triggers.push_back("HLT_mu24");  ////354006
alg->triggers.push_back("HLT_5j70_L14J15");  ////348967
alg->triggers.push_back("L1_TAU20IM_2TAU12IM");  ////348297
alg->triggers.push_back("HLT_5j70");  ////348183
alg->triggers.push_back("HLT_2mu6_bDimu_Lxy0");  ////347905
alg->triggers.push_back("HLT_mu4_iloose_mu4_11invm60_noos");  ////346929
alg->triggers.push_back("HLT_j80_bmv2c2060_split_xe60_L12J50_XE40");  ////346826
alg->triggers.push_back("HLT_j380_nojcalib");  ////345307
alg->triggers.push_back("HLT_6j45_0eta240_L15J150ETA25");  ////344141
alg->triggers.push_back("HLT_xe90_tc_lcw_L1XE50");  ////343701
alg->triggers.push_back("HLT_mu20_nomucomb_mu6noL1_nscan03_bTau");  ////342551
alg->triggers.push_back("HLT_2j35_bmv2c2050_split_2j35_L14J15");  ////342227
alg->triggers.push_back("HLT_mu6_mu4_bUpsimumu");  ////337799
alg->triggers.push_back("L1_J50.31ETA49");  ////337467
alg->triggers.push_back("HLT_mu26_ivarmedium_2j35_boffperf");  ////331969
alg->triggers.push_back("HLT_mu26_ivarmedium_2j35_bperf");  ////331969
alg->triggers.push_back("HLT_xe100_L1XE55");  ////318896
alg->triggers.push_back("HLT_j100_2j55_bmv2c2060_split");  ////310030
alg->triggers.push_back("HLT_xe100_wEFMu_L1XE50");  ////306526
alg->triggers.push_back("HLT_2j35_bmv2c2050_split_2j35_L14J15.0ETA25");  ////303723
alg->triggers.push_back("HLT_xe110_pueta_L1XE50");  ////302472
alg->triggers.push_back("HLT_mu10_mu6_bBmumux_Taumumux_noL2");  ////302170
alg->triggers.push_back("HLT_3mu4_bUpsi_delayed");  ////300866
alg->triggers.push_back("HLT_xe110_pufit_L1XE50");  ////299762
alg->triggers.push_back("HLT_xe100_mht_L1XE55");  ////296875
alg->triggers.push_back("HLT_j75_bmv2c2060_split_3j75_L14J15");  ////294646
alg->triggers.push_back("HLT_2j75_bmv2c2070_split_j75");  ////290702
alg->triggers.push_back("HLT_4j110");  ////289303
alg->triggers.push_back("HLT_j0_1i2c200m8000TLA_delayed");  ////289209
alg->triggers.push_back("HLT_mu6_ivarloose_2j40_0eta490_invm1000_L1MU6_J30.0ETA49_2J20.0ETA49");  ////285215
alg->triggers.push_back("HLT_j70_bmv2c2077_split_3j70_L14J15");  ////284333
alg->triggers.push_back("HLT_j225_bmv2c2085_split");  ////283924
alg->triggers.push_back("L1_J40_DPHI-J20s2XE50");  ////283879
alg->triggers.push_back("HLT_mu10_mu6_bBmumux_Taumumux");  ////283805
alg->triggers.push_back("HLT_j65_bmv2c2070_split_3j65_L14J15");  ////283617
alg->triggers.push_back("HLT_j400_nojcalib");  ////281518
alg->triggers.push_back("HLT_3mu4_bUpsi");  ////279366
alg->triggers.push_back("HLT_2j55_bmv2c2060_split_ht300_L14J15");  ////278478
alg->triggers.push_back("HLT_xe120_mht_wEFMu_L1XE55");  ////275697
alg->triggers.push_back("L1_J50");  ////275521
alg->triggers.push_back("HLT_5j85_lcw_jes_L14J15");  ////273416
alg->triggers.push_back("HLT_5j85_lcw_jes");  ////272145
alg->triggers.push_back("HLT_j400_sub");  ////267549
alg->triggers.push_back("HLT_xe100_tc_lcw_L1XE50");  ////266626
alg->triggers.push_back("L1_EM15_XS30");  ////266519
alg->triggers.push_back("HLT_xe140_pueta_L1XE50");  ////266352
alg->triggers.push_back("L1_XE45");  ////266295
alg->triggers.push_back("HLT_2j45_bmv2c2077_split_3j45");  ////265202
alg->triggers.push_back("HLT_mu26_ivarmedium_2j35_boffperf_split");  ////264986
alg->triggers.push_back("HLT_mu26_ivarmedium_2j35_bperf_split");  ////264986
alg->triggers.push_back("HLT_e26_lhtight_nod0_ivarloose");  ////264598
alg->triggers.push_back("HLT_5j70_0eta240_L14J15");  ////260470
alg->triggers.push_back("HLT_mu6_mu4_bUpsimumu_delayed");  ////260226
alg->triggers.push_back("HLT_5j70_0eta240");  ////259953
alg->triggers.push_back("HLT_j300_bmv2c2077_split");  ////259321
alg->triggers.push_back("HLT_g35_loose_L1EM22VHI_mu18noL1");  ////257187
alg->triggers.push_back("HLT_e26_lhtight_smooth_ivarloose");  ////256350
alg->triggers.push_back("HLT_j460_a10_nojcalib_L1J100");  ////255941
alg->triggers.push_back("HLT_j275_bmv2c2070_split");  ////255523
alg->triggers.push_back("HLT_g140_loose");  ////253205
alg->triggers.push_back("HLT_g35_loose_L1EM24VHI_mu18noL1");  ////252437
alg->triggers.push_back("HLT_mu60");  ////251929
alg->triggers.push_back("HLT_g35_loose_L1EM22VHI_mu15noL1_mu2noL1");  ////251316
alg->triggers.push_back("HLT_j360_bmv2c2085_split");  ////250495
alg->triggers.push_back("HLT_g35_loose_L1EM24VHI_mu15noL1_mu2noL1");  ////246462
alg->triggers.push_back("HLT_xe100_tc_lcw_L1XE60");  ////245903
alg->triggers.push_back("HLT_xe90_tc_lcw_wEFMu_L1XE50");  ////245074
alg->triggers.push_back("HLT_xe110_mht_L1XE50_AND_xe65_L1XE50");  ////244504
alg->triggers.push_back("HLT_e28_lhtight_nod0_ivarloose_L1EM22VHI");  ////239774
alg->triggers.push_back("HLT_2mu6_bBmumu_Lxy0");  ////239280
alg->triggers.push_back("HLT_j380_a10_lcw_L1J100");  ////238932
alg->triggers.push_back("HLT_xe100_wEFMu_L1XE55");  ////237583
alg->triggers.push_back("HLT_6j50_0eta240_L14J15");  ////236302
alg->triggers.push_back("HLT_xe90_mht_wEFMu_L1XE55");  ////235731
alg->triggers.push_back("L1_J400");  ////235514
alg->triggers.push_back("HLT_noalg_l1calo_L1J400");  ////235423
alg->triggers.push_back("HLT_noalg_L1J400");  ////235230
alg->triggers.push_back("HLT_6j50_0eta240_L14J20");  ////234854
alg->triggers.push_back("HLT_mu60_0eta105_msonly");  ////233944
alg->triggers.push_back("HLT_mu6_nomucomb_2mu4_nomucomb_bTau_L1MU6_3MU4");  ////233354
alg->triggers.push_back("HLT_xe110_L1XE50");  ////232409
alg->triggers.push_back("HLT_j340");  ////232376
alg->triggers.push_back("HLT_mu20_l2idonly_mu6noL1_nscan03_bTau");  ////232312
alg->triggers.push_back("HLT_j225_bmv2c2050_split");  ////232002
alg->triggers.push_back("HLT_2j45_bmv2c2070_split_2j45_L14J15");  ////230903
alg->triggers.push_back("HLT_j420_nojcalib");  ////230499
alg->triggers.push_back("HLT_6j50_0eta240_L15J150ETA25");  ////228471
alg->triggers.push_back("HLT_e28_lhtight_nod0_ivarloose");  ////227589
alg->triggers.push_back("HLT_j380_a10r_L1J100");  ////226484
alg->triggers.push_back("L1_EM18VH");  ////224574
alg->triggers.push_back("HLT_2j45_bmv2c2070_split_3j45_L14J15.0ETA25");  ////221883
alg->triggers.push_back("HLT_e28_lhtight_smooth_ivarloose");  ////220864
alg->triggers.push_back("HLT_xe140_pueta_L1XE55");  ////217178
alg->triggers.push_back("HLT_xe110_mht_L1XE55_AND_xe65_L1XE55");  ////216406
alg->triggers.push_back("HLT_j75_bmv2c2077_split_3j75_L14J15");  ////215952
alg->triggers.push_back("HLT_xe110_mht_L1XE50_AND_xe70_L1XE50");  ////214921
alg->triggers.push_back("HLT_2mu4_bBmumu_L1BPH-2M8-2MU4");  ////214650
alg->triggers.push_back("HLT_j0_0i1c500m900TLA_delayed");  ////213835
alg->triggers.push_back("HLT_j150_bmv2c2060_split_j50_bmv2c2060_split");  ////212892
alg->triggers.push_back("HLT_5j85_jes_L14J15");  ////212578
alg->triggers.push_back("HLT_5j85_jes");  ////212117
alg->triggers.push_back("HLT_2j70_bmv2c2060_split_j70");  ////210363
alg->triggers.push_back("HLT_mu26_5j30_0eta240_L1MU10_3J20");  ////206569
alg->triggers.push_back("HLT_xe130_mht_L1XE50");  ////206435
alg->triggers.push_back("HLT_beamspot_activeTE_trkfast_peb");  ////203981
alg->triggers.push_back("HLT_xe140_pueta_wEFMu_L1XE50");  ////201156
alg->triggers.push_back("HLT_j70_bmv2c2070_split_3j70_L14J15.0ETA25");  ////196739
alg->triggers.push_back("HLT_xe70_L1XE50");  ////196036
alg->triggers.push_back("HLT_xe110_mht_L1XE55_AND_xe70_L1XE55");  ////195544
alg->triggers.push_back("HLT_xe110_wEFMu_L1XE50");  ////195276
alg->triggers.push_back("HLT_2mu6_bUpsimumu_delayed");  ////194942
alg->triggers.push_back("HLT_4j120");  ////194828
alg->triggers.push_back("HLT_mu20_idperf");  ////194553
alg->triggers.push_back("HLT_xe110_L1XE55");  ////194399
alg->triggers.push_back("HLT_j460_a10_sub_L1J100");  ////194035
alg->triggers.push_back("HLT_j360");  ////192054
alg->triggers.push_back("HLT_e28_lhtight_nod0_ringer_ivarloose");  ////188493
alg->triggers.push_back("HLT_xe120_pueta_L1XE50");  ////188251
alg->triggers.push_back("HLT_mu4_j125_xe90_mht");  ////187825
alg->triggers.push_back("HLT_mu14_ivarloose_tau35_medium1_tracktwo");  ////184349
alg->triggers.push_back("HLT_xe110_mht_L1XE50_AND_xe75_L1XE50");  ////182716
alg->triggers.push_back("HLT_g70_loose_xe70noL1");  ////182132
alg->triggers.push_back("HLT_j300_bmv2c2070_split");  ////181702
alg->triggers.push_back("HLT_2mu6");  ////180799
alg->triggers.push_back("HLT_noalg_L12MU6");  ////180473
alg->triggers.push_back("HLT_3j200");  ////179586
alg->triggers.push_back("HLT_j0_0i1c500m900TLA");  ////178898
alg->triggers.push_back("HLT_mu6_2mu4_bTau_noL2");  ////178197
alg->triggers.push_back("HLT_mu6_mu4_bBmumu_L1BPH-2M8-MU6MU4_BPH-0DR15-MU6MU4");  ////176109
alg->triggers.push_back("HLT_mu6_j260_bperf_split_dr05_dz02");  ////176016
alg->triggers.push_back("L1_J40");  ////175405
alg->triggers.push_back("HLT_g160_loose");  ////173449
alg->triggers.push_back("HLT_xe100_mht_wEFMu_L1XE55");  ////172495
alg->triggers.push_back("HLT_mu14_ivarloose_tau25_medium1_tracktwo");  ////172306
alg->triggers.push_back("HLT_xe110_mht_L1XE55_AND_xe75_L1XE55");  ////170929
alg->triggers.push_back("HLT_xe130_mht_L1XE55");  ////170407
alg->triggers.push_back("HLT_j100_2j55_bmv2c2050_split");  ////169723
alg->triggers.push_back("HLT_g10_loose_L1EM8I_mu10_iloose_taumass");  ////167932
alg->triggers.push_back("HLT_xe140_pufit_L1XE50");  ////167343
alg->triggers.push_back("HLT_2j75_bmv2c2060_split_j75");  ////166873
alg->triggers.push_back("L1_EM15");  ////165971
alg->triggers.push_back("HLT_2j45_bmv2c2070_split_3j45");  ////165691
alg->triggers.push_back("HLT_mu6_j320_bperf_split_dr05_dz02");  ////164370
alg->triggers.push_back("HLT_xe140_pueta_wEFMu_L1XE55");  ////164137
alg->triggers.push_back("HLT_ht850_L1J75");  ////161673
alg->triggers.push_back("HLT_ht850_L1J100");  ////161563
alg->triggers.push_back("HLT_mu6_j320_bperf_split");  ////161091
alg->triggers.push_back("HLT_j75_bmv2c2070_split_3j75_L14J15");  ////160421
alg->triggers.push_back("HLT_xe100_tc_lcw_wEFMu_L1XE50");  ////159420
alg->triggers.push_back("HLT_2mu6_bUpsimumu");  ////157909
alg->triggers.push_back("HLT_noalg_L12MU10");  ////157023
alg->triggers.push_back("HLT_xe150_pueta_L1XE50");  ////156816
alg->triggers.push_back("HLT_5j85_lcw_nojcalib_L14J15");  ////154664
alg->triggers.push_back("HLT_5j85_lcw_nojcalib");  ////154377
alg->triggers.push_back("HLT_xe110_mht_L1XE50_AND_xe80_L1XE50");  ////154091
alg->triggers.push_back("HLT_satu20em_l1satmon_L1J100");  ////153717
alg->triggers.push_back("HLT_xe110_wEFMu_L1XE55");  ////153589
alg->triggers.push_back("HLT_xe75_L1XE50");  ////152388
alg->triggers.push_back("HLT_2j55_bmv2c2050_split_ht300_L14J15");  ////151340
alg->triggers.push_back("L1_J75.31ETA49");  ////149798
alg->triggers.push_back("HLT_xe110_mht_L1XE55_AND_xe80_L1XE55");  ////147181
alg->triggers.push_back("HLT_6j55_0eta240_L14J15");  ////146841
alg->triggers.push_back("HLT_6j55_0eta240_L14J20");  ////146543
alg->triggers.push_back("HLT_xe130_mht_wEFMu_L1XE50");  ////146510
alg->triggers.push_back("HLT_5j85_lcw_L14J15");  ////145078
alg->triggers.push_back("HLT_5j85_lcw");  ////144904
alg->triggers.push_back("HLT_xe75_L1XE55");  ////144550
alg->triggers.push_back("HLT_mu6_iloose_mu6_24invm60_noos_novtx");  ////143827
alg->triggers.push_back("HLT_6j55_0eta240_L15J150ETA25");  ////143473
alg->triggers.push_back("HLT_j225_bmv2c2077_split");  ////142367
alg->triggers.push_back("HLT_j75_bmv2c2060_split_3j75_L14J15.0ETA25");  ////140050
alg->triggers.push_back("HLT_2mu6_bBmumu_L1BPH-2M9-2MU6_BPH-2DR15-2MU6");  ////139189
alg->triggers.push_back("HLT_5j85_L14J15");  ////139087
alg->triggers.push_back("HLT_xe120_pufit_L1XE50");  ////139076
alg->triggers.push_back("HLT_5j85");  ////138913
alg->triggers.push_back("HLT_xe150_pueta_L1XE55");  ////138734
alg->triggers.push_back("HLT_xe140_pufit_L1XE55");  ////138706
alg->triggers.push_back("HLT_6j60_L14J15");  ////136965
alg->triggers.push_back("HLT_6j60");  ////136965
alg->triggers.push_back("HLT_7j45_L14J15");  ////136715
alg->triggers.push_back("HLT_g45_tight_L1EM22VHI_xe45noL1");  ////136224
alg->triggers.push_back("HLT_j0_1i2c200m8000TLA");  ////135489
alg->triggers.push_back("HLT_7j45_L14J20");  ////135267
alg->triggers.push_back("HLT_xe130_pueta_L1XE55");  ////133155
alg->triggers.push_back("HLT_mu14_iloose_tau35_medium1_tracktwo");  ////131928
alg->triggers.push_back("L1_EM12_XS20");  ////131792
alg->triggers.push_back("L1_J30");  ////131426
alg->triggers.push_back("HLT_2mu6_nomucomb_mu4_nomucomb_bTau_L12MU6_3MU4");  ////130920
alg->triggers.push_back("HLT_2j45_bmv2c2060_split_3j45_L14J15.0ETA25");  ////130320
alg->triggers.push_back("HLT_2mu4");  ////130146
alg->triggers.push_back("HLT_2mu4_bUpsimumu_L1BPH-1M19-2MU4-BO_BPH-0DR34-2MU4");  ////126780
alg->triggers.push_back("HLT_mu4_iloose_mu4_11invm60_noos_L1MU6_2MU4");  ////126714
alg->triggers.push_back("HLT_j30_xe60_razor170");  ////126347
alg->triggers.push_back("L1_J30.31ETA49");  ////125171
alg->triggers.push_back("HLT_j360_a10_lcw_L1J100");  ////125075
alg->triggers.push_back("HLT_j80_bmv2c2050_split_xe60_L12J50_XE40");  ////124683
alg->triggers.push_back("HLT_7j45");  ////123918
alg->triggers.push_back("HLT_xe120_L1XE50");  ////123861
alg->triggers.push_back("HLT_xe120_L1XE55");  ////123538
alg->triggers.push_back("HLT_xe150_pueta_wEFMu_L1XE50");  ////123043
alg->triggers.push_back("HLT_e7_lhmedium_nod0_mu24");  ////123042
alg->triggers.push_back("HLT_3j175");  ////122263
alg->triggers.push_back("HLT_mu14_iloose_tau25_medium1_tracktwo");  ////121908
alg->triggers.push_back("HLT_mu6_j175_bperf_split_dr05_dz02");  ////121874
alg->triggers.push_back("HLT_g25_medium_L1EM22VHI_4j35_0eta490_invm700");  ////121216
alg->triggers.push_back("HLT_g20_loose_L1EM15I_mu4_iloose_taumass");  ////121110
alg->triggers.push_back("HLT_xe130_tc_lcw_L1XE50");  ////119668
alg->triggers.push_back("HLT_g75_tight_3j50noL1_L1EM22VHI");  ////119436
alg->triggers.push_back("HLT_e17_lhloose_nod0_mu14");  ////118781
alg->triggers.push_back("HLT_j360_a10r_L1J100");  ////118265
alg->triggers.push_back("HLT_mu6_mu4_bBmumu_Lxy0_L1BPH-2M8-MU6MU4_BPH-0DR15-MU6MU4");  ////117759
alg->triggers.push_back("HLT_xe130_pueta_L1XE50");  ////117546
alg->triggers.push_back("HLT_xe80_L1XE50");  ////117526
alg->triggers.push_back("HLT_j175_bmv2c2060_split_j50_bmv2c2050_split");  ////117387
alg->triggers.push_back("L1_XE35");  ////116869
alg->triggers.push_back("HLT_2mu4_bBmumu_Lxy0_L1BPH-2M8-2MU4");  ////114993
alg->triggers.push_back("HLT_2j70_bmv2c2050_split_j70");  ////114482
alg->triggers.push_back("HLT_xe130_mht_wEFMu_L1XE55");  ////113575
alg->triggers.push_back("HLT_mu6_j150_bperf_split_dr05_dz02");  ////113394
alg->triggers.push_back("HLT_xe80_L1XE55");  ////113303
alg->triggers.push_back("HLT_xe140_pufit_wEFMu_L1XE50");  ////112806
alg->triggers.push_back("L1_J40.0ETA25_2J15.31ETA49");  ////112499
alg->triggers.push_back("HLT_e24_lhtight_nod0_ivarloose");  ////112377
alg->triggers.push_back("HLT_mu6_iloose_mu6_11invm24_noos_novtx");  ////112228
alg->triggers.push_back("HLT_e24_lhtight_nod0_iloose");  ////112122
alg->triggers.push_back("HLT_2mu4_bBmumux_BsmumuPhi_L1BPH-2M8-2MU4");  ////112025
alg->triggers.push_back("HLT_j30_xe10_razor185");  ////110228
alg->triggers.push_back("HLT_3mu6_bTau");  ////108784
alg->triggers.push_back("HLT_xe130_pueta_wEFMu_L1XE50");  ////108764
alg->triggers.push_back("HLT_xe120_wEFMu_L1XE50");  ////108729
alg->triggers.push_back("HLT_j150_bmv2c2050_split_j50_bmv2c2050_split");  ////108275
alg->triggers.push_back("HLT_j30_xe60_razor220");  ////108096
alg->triggers.push_back("HLT_e24_lhtight_ivarloose");  ////107705
alg->triggers.push_back("HLT_e24_lhtight_iloose");  ////107451
alg->triggers.push_back("HLT_mu24_5j30_0eta240_L1MU10_3J20");  ////106896
alg->triggers.push_back("HLT_xe100");  ////106583
alg->triggers.push_back("HLT_e300_etcut");  ////105971
alg->triggers.push_back("HLT_g300_etcut");  ////105628
alg->triggers.push_back("HLT_xe140_tc_lcw_L1XE50");  ////104999
alg->triggers.push_back("HLT_e26_lhtight_nod0_iloose");  ////104171
alg->triggers.push_back("HLT_xe150_pueta_wEFMu_L1XE55");  ////104067
alg->triggers.push_back("HLT_xe150_pufit_L1XE50");  ////103370
alg->triggers.push_back("HLT_mu13_mu13_idperf_Zmumu");  ////103236
alg->triggers.push_back("HLT_g25_medium_mu24");  ////102961
alg->triggers.push_back("L1_RD0_FILLED");  ////102850
alg->triggers.push_back("HLT_xe120_tc_lcw_L1XE50");  ////102727
alg->triggers.push_back("HLT_g35_loose_g25_loose");  ////101741
alg->triggers.push_back("HLT_e60_medium_L1EM24VHI");  ////101176
alg->triggers.push_back("HLT_e60_medium");  ////100977
alg->triggers.push_back("HLT_e26_lhtight_smooth_iloose");  ////100639
alg->triggers.push_back("HLT_6j45");  ////100481
alg->triggers.push_back("HLT_xe120_wEFMu_L1XE55");  ////100158
alg->triggers.push_back("HLT_xe130_pufit_L1XE55");  ////99722
alg->triggers.push_back("HLT_j225_bmv2c2070_split");  ////99272
alg->triggers.push_back("HLT_mu6_j85_bperf_split_dr05_dz02");  ////99169
alg->triggers.push_back("HLT_e28_lhtight_nod0_L1EM22VHI");  ////99163
alg->triggers.push_back("HLT_2j45_bmv2c2060_split_3j45");  ////98154
alg->triggers.push_back("L1_EM7_2EM3");  ////97242
alg->triggers.push_back("HLT_mu10_mu6_bUpsimumu_delayed");  ////97101
alg->triggers.push_back("HLT_xe100_tc_em_L1XE50");  ////95875
alg->triggers.push_back("HLT_j30_xe60_razor185");  ////95418
alg->triggers.push_back("HLT_xe130_tc_em_L1XE50");  ////94779
alg->triggers.push_back("HLT_5j55");  ////94538
alg->triggers.push_back("HLT_xe140_mht_L1XE50");  ////93977
alg->triggers.push_back("HLT_xe150_pufit_L1XE55");  ////93468
alg->triggers.push_back("HLT_xe140_pufit_wEFMu_L1XE55");  ////93295
alg->triggers.push_back("HLT_j80_bmv2c2077_split_xe70_L1J400ETA25_XE50");  ////92777
alg->triggers.push_back("L1_J20");  ////92741
alg->triggers.push_back("HLT_xe130_tc_lcw_L1XE55");  ////91752
alg->triggers.push_back("HLT_xe120_pueta");  ////90956
alg->triggers.push_back("HLT_xe130_tc_em_L1XE55");  ////90799
alg->triggers.push_back("HLT_j80_bmv2c2070_split_j60_bmv2c2085_split_j45_320eta490");  ////90756
alg->triggers.push_back("HLT_xe105_pufit_L1XE50");  ////90508
alg->triggers.push_back("HLT_mu4_iloose_mu4_11invm60_noos_novtx");  ////90275
alg->triggers.push_back("HLT_mu14_tau25_medium1_tracktwo");  ////89561
alg->triggers.push_back("HLT_e28_lhtight_nod0_iloose");  ////89254
alg->triggers.push_back("HLT_mu6_j110_bperf_split_dr05_dz02");  ////88686
alg->triggers.push_back("HLT_j100_2j55_bmv2c2070_split");  ////88627
alg->triggers.push_back("HLT_mu10_mu6_bUpsimumu");  ////88609
alg->triggers.push_back("HLT_g200_loose");  ////88438
alg->triggers.push_back("HLT_xe130_pufit_L1XE50");  ////87769
alg->triggers.push_back("HLT_mu14_tau35_medium1_tracktwo");  ////87385
alg->triggers.push_back("HLT_j260");  ////87263
alg->triggers.push_back("HLT_j30_xe10_razor195");  ////86969
alg->triggers.push_back("HLT_xe130_pueta_wEFMu_L1XE55");  ////86586
alg->triggers.push_back("HLT_e28_lhtight_smooth_iloose");  ////86388
alg->triggers.push_back("HLT_j275_bmv2c2060_split");  ////86246
alg->triggers.push_back("HLT_xe110_L1XE60");  ////86146
alg->triggers.push_back("HLT_mu6_j150_bperf_split");  ////85957
alg->triggers.push_back("HLT_4j85_lcw_jes");  ////85552
alg->triggers.push_back("HLT_mu18");  ////85488
alg->triggers.push_back("HLT_2mu6_bBmumux_BsmumuPhi");  ////85467
alg->triggers.push_back("HLT_tau160_medium1_tracktwo");  ////85380
alg->triggers.push_back("L1_XE300");  ////84156
alg->triggers.push_back("HLT_xe130_tc_em_wEFMu_L1XE50");  ////84156
alg->triggers.push_back("HLT_noalg_L1XE300");  ////84120
alg->triggers.push_back("HLT_7j45_0eta240_L14J20");  ////83700
alg->triggers.push_back("L1_J20.28ETA31");  ////83693
alg->triggers.push_back("HLT_7j45_0eta240_L15J150ETA25");  ////83016
alg->triggers.push_back("HLT_mu6_mu4_bBmumu_L12MU4-B");  ////82407
alg->triggers.push_back("HLT_e26_lhtight_ivarloose");  ////82089
alg->triggers.push_back("HLT_g10_etcut_L1EM8I_mu10_iloose_taumass");  ////82007
alg->triggers.push_back("HLT_e26_lhtight_iloose");  ////81843
alg->triggers.push_back("HLT_mu14");  ////81820
alg->triggers.push_back("HLT_xe130_pufit_wEFMu_L1XE50");  ////80989
alg->triggers.push_back("HLT_xe140_mht_L1XE55");  ////80965
alg->triggers.push_back("HLT_tau35_medium1_tracktwo_tau25_medium1_tracktwo");  ////80405
alg->triggers.push_back("HLT_mu14_nomucomb");  ////80223
alg->triggers.push_back("HLT_mu24_5j15noL1");  ////79991
alg->triggers.push_back("HLT_mu20_iloose_L1MU15");  ////79529
alg->triggers.push_back("HLT_mu6_j400_bperf_split_dr05_dz02");  ////79314
alg->triggers.push_back("L1_EM7_MU10");  ////79086
alg->triggers.push_back("HLT_2mu6_nomucomb_bPhi");  ////78690
alg->triggers.push_back("HLT_xe130_tc_lcw_wEFMu_L1XE50");  ////78671
alg->triggers.push_back("HLT_2mu6_bDimu_noinvm_novtx_ss");  ////78613
alg->triggers.push_back("HLT_j175_bmv2c2050_split_j50_bmv2c2050_split");  ////77993
alg->triggers.push_back("HLT_mu6_mu4_bDimu_noinvm_novtx_ss");  ////77848
alg->triggers.push_back("HLT_mu10");  ////77756
alg->triggers.push_back("HLT_xe105_pufit_L1XE55");  ////77145
alg->triggers.push_back("HLT_2mu6_bBmumu_Lxy0_L1BPH-2M9-2MU6_BPH-2DR15-2MU6");  ////76687
alg->triggers.push_back("HLT_xe130_tc_em_wEFMu_L1XE55");  ////76135
alg->triggers.push_back("HLT_5j60");  ////75710
alg->triggers.push_back("HLT_xe120_tc_lcw_L1XE55");  ////75411
alg->triggers.push_back("HLT_e28_lhtight_nod0_ringer_iloose");  ////75410
alg->triggers.push_back("HLT_5j60_L14J15");  ////75211
alg->triggers.push_back("HLT_2j75_bmv2c2077_split_j75");  ////75196
alg->triggers.push_back("HLT_xe160_tc_lcw_L1XE50");  ////75033
alg->triggers.push_back("HLT_xe150_pufit_wEFMu_L1XE50");  ////74271
alg->triggers.push_back("HLT_tau125_medium1_track");  ////74178
alg->triggers.push_back("HLT_mu24_4j15noL1");  ////74043
alg->triggers.push_back("HLT_e12_lhloose_nod0_2mu10");  ////73851
alg->triggers.push_back("HLT_xe140_tc_lcw_wEFMu_L1XE50");  ////73569
alg->triggers.push_back("HLT_4j85_jes");  ////73380
alg->triggers.push_back("HLT_mu4");  ////73372
alg->triggers.push_back("HLT_mu14_tau25_medium1_tracktwo_xe50");  ////72412
alg->triggers.push_back("HLT_tau125_medium1_tracktwo");  ////72040
alg->triggers.push_back("HLT_e26_lhtight_nod0_ivarloose_2j35_boffperf");  ////72009
alg->triggers.push_back("HLT_e26_lhtight_nod0_ivarloose_2j35_bperf");  ////72009
alg->triggers.push_back("HLT_xe140_mht_L1XE60");  ////71975
alg->triggers.push_back("HLT_2j45_bmv2c2050_split_3j45_L14J15.0ETA25");  ////71817
alg->triggers.push_back("HLT_2j35_bmv2c2070_split_2j35_L14J15");  ////71373
alg->triggers.push_back("HLT_xe140_tc_lcw_L1XE55");  ////71253
alg->triggers.push_back("HLT_mu20_ivarloose_L1MU15");  ////70951
alg->triggers.push_back("HLT_e28_lhtight_ivarloose");  ////70594
alg->triggers.push_back("HLT_xe90_L1XE50");  ////70544
alg->triggers.push_back("HLT_mu24_3j20noL1");  ////70416
alg->triggers.push_back("HLT_e28_lhtight_iloose");  ////70348
alg->triggers.push_back("L1_J20.31ETA49");  ////70268
alg->triggers.push_back("HLT_mu10_nomucomb");  ////69632
alg->triggers.push_back("HLT_mu4_j55_bperf_split_dr05_dz02");  ////69575
alg->triggers.push_back("HLT_xe90_L1XE55");  ////69391
alg->triggers.push_back("HLT_3mu6_bUpsi");  ////68764
alg->triggers.push_back("HLT_j30_xe10_razor170");  ////68508
alg->triggers.push_back("HLT_mu24_2j20noL1");  ////68309
alg->triggers.push_back("HLT_xe120_pufit");  ////67579
alg->triggers.push_back("L1_J25");  ////66934
alg->triggers.push_back("L1_MU11");  ////66858
alg->triggers.push_back("HLT_mu20_ivarmedium_L1MU15");  ////66603
alg->triggers.push_back("HLT_mu20_imedium_L1MU15");  ////65807
alg->triggers.push_back("HLT_xe120_mht");  ////65542
alg->triggers.push_back("HLT_xe160_pueta_L1XE50");  ////65350
alg->triggers.push_back("HLT_mu6_mu4_bBmumu_L1MU6MU4-BO");  ////65218
alg->triggers.push_back("HLT_g20_etcut_L1EM15I_mu4_iloose_taumass");  ////64615
alg->triggers.push_back("HLT_e26_lhtight_iloose_2j35_bperf");  ////64607
alg->triggers.push_back("HLT_e26_lhtight_iloose_2j35_boffperf");  ////64607
alg->triggers.push_back("HLT_2j45_bmv2c2077_split_2j45_L14J15");  ////64335
alg->triggers.push_back("HLT_xe100_tc_em_wEFMu_L1XE50");  ////64234
alg->triggers.push_back("HLT_xe150_pufit_wEFMu_L1XE55");  ////63518
alg->triggers.push_back("HLT_xe120_tc_lcw");  ////63463
alg->triggers.push_back("HLT_4j85_lcw");  ////63116
alg->triggers.push_back("HLT_g25_medium_L1EM22VHI_j35_0eta490_bmv2c2077_split_3j35_0eta490_invm700");  ////62434
alg->triggers.push_back("HLT_mu26_5j15noL1");  ////62318
alg->triggers.push_back("HLT_noalg_L1MU20");  ////61941
alg->triggers.push_back("HLT_xe160_tc_lcw_L1XE55");  ////61644
alg->triggers.push_back("HLT_xe130_pufit_wEFMu_L1XE55");  ////61605
alg->triggers.push_back("HLT_4j85");  ////61411
alg->triggers.push_back("HLT_6j70_L14J15");  ////61358
alg->triggers.push_back("HLT_6j70");  ////61358
alg->triggers.push_back("HLT_noalg_L1MU11");  ////61174
alg->triggers.push_back("HLT_xe110_pufit_L1XE55");  ////61130
alg->triggers.push_back("HLT_idcalib_trk29_central");  ////59991
alg->triggers.push_back("HLT_g140_tight");  ////59901
alg->triggers.push_back("HLT_xe140_tc_em_L1XE50");  ////59705
alg->triggers.push_back("HLT_xe160_tc_lcw_wEFMu_L1XE50");  ////59697
alg->triggers.push_back("HLT_xe150_mht_L1XE50");  ////59631
alg->triggers.push_back("HLT_xe120_tc_lcw_wEFMu_L1XE50");  ////59578
alg->triggers.push_back("L1_J100.31ETA49");  ////59419
alg->triggers.push_back("HLT_xe160_pueta_L1XE55");  ////59342
alg->triggers.push_back("HLT_mu6");  ////59157
alg->triggers.push_back("HLT_2j70_bmv2c2070_split_j70");  ////59118
alg->triggers.push_back("HLT_e26_lhtight_nod0_ivarloose_2j35_bperf_split");  ////58850
alg->triggers.push_back("HLT_noalg_L1LowLumi");  ////58847
alg->triggers.push_back("HLT_e26_lhtight_nod0_ivarloose_2j35_boffperf_split");  ////58830
alg->triggers.push_back("HLT_j100_2j55_bmv2c2077_split");  ////58679
alg->triggers.push_back("HLT_xe140_tc_em_L1XE55");  ////58270
alg->triggers.push_back("HLT_e15_lhtight_nod0_ivarloose_3j20_L1EM13VH_3J20");  ////58174
alg->triggers.push_back("HLT_e60_lhmedium_nod0_L1EM24VHI");  ////57723
alg->triggers.push_back("HLT_e60_lhmedium_nod0");  ////57610
alg->triggers.push_back("HLT_mu26_4j15noL1");  ////56948
alg->triggers.push_back("HLT_j175");  ////56752
alg->triggers.push_back("HLT_xe95_pufit_L1XE50");  ////56323
alg->triggers.push_back("HLT_idcalib_trk16_central");  ////56109
alg->triggers.push_back("HLT_4j85_lcw_nojcalib");  ////55952
alg->triggers.push_back("HLT_g25_medium_L1EM22VHI_2j35_0eta490_bmv2c2077_split_2j35_0eta490");  ////55888
alg->triggers.push_back("HLT_xe140_tc_em_wEFMu_L1XE50");  ////55196
alg->triggers.push_back("HLT_mu26_3j20noL1");  ////55177
alg->triggers.push_back("HLT_xe120_L1XE60");  ////54932
alg->triggers.push_back("HLT_tau35_medium1_tracktwo_xe70_L1XE45");  ////54691
alg->triggers.push_back("HLT_2j45_bmv2c2050_split_3j45");  ////54631
alg->triggers.push_back("HLT_mu8_mucombTag_noEF_L1MU40");  ////54439
alg->triggers.push_back("HLT_xe110_tc_em_L1XE50");  ////54426
alg->triggers.push_back("HLT_xe120_tc_lcw_wEFMu_L1XE55");  ////54340
alg->triggers.push_back("HLT_noalg_l1topo_L1BPH-2M9-2MU6_BPH-2DR15-2MU6");  ////54208
alg->triggers.push_back("HLT_xe130_tc_lcw_wEFMu_L1XE55");  ////54198
alg->triggers.push_back("HLT_g80_loose_xe80noL1");  ////53497
alg->triggers.push_back("HLT_xe150_mht_L1XE55");  ////53455
alg->triggers.push_back("HLT_idcalib_trk9_central");  ////53291
alg->triggers.push_back("HLT_beamspot_allTE_trkfast_peb");  ////52284
alg->triggers.push_back("HLT_mu26_2j20noL1");  ////52111
alg->triggers.push_back("HLT_g60_loose_xe60noL1");  ////52079
alg->triggers.push_back("HLT_g10_loose_mu10_iloose_taumass_L1LFV-EM8I");  ////52016
alg->triggers.push_back("HLT_xe120_pueta_wEFMu");  ////51954
alg->triggers.push_back("HLT_xe140_tc_lcw_wEFMu_L1XE55");  ////51917
alg->triggers.push_back("HLT_e26_lhtight_iloose_2j35_boffperf_split");  ////51829
alg->triggers.push_back("HLT_e26_lhtight_iloose_2j35_bperf_split");  ////51829
alg->triggers.push_back("HLT_mu11_nomucomb_mu6_nomucomb_bPhi");  ////51811
alg->triggers.push_back("HLT_2mu6_bUpsimumu_delayed_L1BPH-8M15-2MU6");  ////51806
alg->triggers.push_back("HLT_noalg_L12MU4");  ////51802
alg->triggers.push_back("HLT_e26_lhmedium_nod0_L1EM22VHI_mu8noL1");  ////51607
alg->triggers.push_back("HLT_xe160_pueta_wEFMu_L1XE50");  ////51313
alg->triggers.push_back("HLT_xe140_tc_em_wEFMu_L1XE55");  ////50782
alg->triggers.push_back("HLT_j30_jes_PS_llp_noiso_L1TAU60");  ////50709
alg->triggers.push_back("HLT_mu32_ivarmedium");  ////50000
alg->triggers.push_back("HLT_j30_jes_cleanLLP_PS_llp_noiso_L1TAU60");  ////49838
alg->triggers.push_back("HLT_xe150_mht_L1XE60");  ////49158
alg->triggers.push_back("HLT_g85_tight_3j50noL1_L1EM22VHI");  ////49037
alg->triggers.push_back("HLT_idcalib_trk16_fwd");  ////48707
alg->triggers.push_back("HLT_xe95_pufit_L1XE55");  ////48625
alg->triggers.push_back("HLT_e28_tight_iloose");  ////48557
alg->triggers.push_back("HLT_mu14_iloose_tau25_perf_tracktwo");  ////48073
alg->triggers.push_back("HLT_mu6_2j40_0eta490_invm800_L1MU6_J30.0ETA49_2J20.0ETA49");  ////48048
alg->triggers.push_back("HLT_idcalib_trk29_fwd");  ////47867
alg->triggers.push_back("HLT_mu11_nomucomb_2mu4noL1_nscan03_L1MU11_2MU6_bTau");  ////47740
alg->triggers.push_back("HLT_mu4_iloose_mu4_7invm9_noos");  ////47232
alg->triggers.push_back("L1_J15.31ETA49");  ////47014
alg->triggers.push_back("HLT_j150_bmv2c2077_split_j50_bmv2c2077_split");  ////46918
alg->triggers.push_back("HLT_idcalib_trk9_fwd");  ////46448
alg->triggers.push_back("HLT_xe160_tc_lcw_wEFMu_L1XE55");  ////46152
alg->triggers.push_back("HLT_e250_etcut");  ////45404
alg->triggers.push_back("HLT_g250_etcut");  ////45135
alg->triggers.push_back("HLT_noalg_L1MU15");  ////45066
alg->triggers.push_back("HLT_xe160_pueta_wEFMu_L1XE55");  ////44691
alg->triggers.push_back("HLT_e12_lhmedium_nod0_2mu10");  ////44637
alg->triggers.push_back("HLT_xe100_pufit_L1XE50");  ////43922
alg->triggers.push_back("HLT_j30_jes_PS_llp_L1TAU60");  ////43594
alg->triggers.push_back("HLT_xe120_tc_em");  ////43506
alg->triggers.push_back("HLT_xe120");  ////42897
alg->triggers.push_back("HLT_j30_jes_cleanLLP_PS_llp_L1TAU60");  ////42830
alg->triggers.push_back("L1_J15");  ////42019
alg->triggers.push_back("HLT_e28_lhtight_nod0_ivarloose_2j35_boffperf_split");  ////42007
alg->triggers.push_back("HLT_xe160_pufit_L1XE50");  ////41393
alg->triggers.push_back("HLT_mu4_j15_bperf_split_dr05_dz02");  ////40801
alg->triggers.push_back("HLT_e17_lhmedium_nod0_ivarloose_tau25_medium1_tracktwo");  ////40783
alg->triggers.push_back("L1_EM15HI_2TAU12IM");  ////40588
alg->triggers.push_back("HLT_g25_medium_L1EM22VHI_4j35_0eta490_invm1000");  ////40517
alg->triggers.push_back("HLT_mu20_L1MU15");  ////40162
alg->triggers.push_back("HLT_xe160_pufit_L1XE55");  ////39325
alg->triggers.push_back("HLT_xe160_mht_L1XE50");  ////39321
alg->triggers.push_back("L1_HT190-J15.ETA21");  ////39271
alg->triggers.push_back("HLT_j300_a10_sub_L1J75");  ////39271
alg->triggers.push_back("L1_HT190-J15s5.ETA21");  ////39202
alg->triggers.push_back("HLT_g20_loose_mu4_iloose_taumass_L1LFV-EM15I");  ////39180
alg->triggers.push_back("HLT_2j70_bmv2c2077_split_j70");  ////38761
alg->triggers.push_back("HLT_j260_a10_sub_L1J75");  ////38741
alg->triggers.push_back("HLT_xe100_pufit_L1XE55");  ////38676
alg->triggers.push_back("HLT_xe110_tc_em_wEFMu_L1XE50");  ////38304
alg->triggers.push_back("HLT_e17_lhloose_mu14");  ////37866
alg->triggers.push_back("HLT_2g10_loose_mu20");  ////36572
alg->triggers.push_back("HLT_xe160_mht_L1XE55");  ////36477
alg->triggers.push_back("HLT_j110");  ////36455
alg->triggers.push_back("HLT_xe130_L1XE60");  ////36442
alg->triggers.push_back("HLT_xe130_L1XE55");  ////36347
alg->triggers.push_back("HLT_g100_tight_3j50noL1_L1EM22VHI");  ////35483
alg->triggers.push_back("HLT_mu4_j25_bperf_split_dr05_dz02");  ////35412
alg->triggers.push_back("HLT_j0_1i2c300m500TLA");  ////35377
alg->triggers.push_back("HLT_e7_lhmedium_mu24");  ////34951
alg->triggers.push_back("HLT_3mu4_nomucomb_bTau");  ////34763
alg->triggers.push_back("HLT_g200_etcut");  ////34653
alg->triggers.push_back("HLT_xe160_mht_L1XE60");  ////34543
alg->triggers.push_back("HLT_e200_etcut");  ////34409
alg->triggers.push_back("HLT_j300_a10_lcw_L1J75");  ////34374
alg->triggers.push_back("HLT_mu20");  ////34028
alg->triggers.push_back("HLT_xe120_pufit_wEFMu");  ////33470
alg->triggers.push_back("HLT_mu10_mucombTag_noEF_L1MU40");  ////33432
alg->triggers.push_back("HLT_j300_a10r_L1J75");  ////33341
alg->triggers.push_back("HLT_2g22_tight");  ////33046
alg->triggers.push_back("HLT_g35_medium_g25_medium");  ////32892
alg->triggers.push_back("HLT_xe120_mht_wEFMu");  ////32892
alg->triggers.push_back("HLT_xe120_tc_lcw_wEFMu");  ////32098
alg->triggers.push_back("HLT_2j55_bmv2c2070_split_ht300_L14J15");  ////31965
alg->triggers.push_back("HLT_noalg_l1topo_L1MU10_2MU6");  ////31616
alg->triggers.push_back("HLT_2j65_bmv2c2070_split_j65");  ////31555
alg->triggers.push_back("HLT_j175_bmv2c2077_split_j60_bmv2c2077_split");  ////31456
alg->triggers.push_back("HLT_j260_a10_nojcalib_L1J75");  ////31141
alg->triggers.push_back("HLT_mu4_j35_bperf_split_dr05_dz02");  ////30947
alg->triggers.push_back("HLT_5j85_nojcalib_L14J15");  ////30691
alg->triggers.push_back("HLT_5j85_nojcalib");  ////30667
alg->triggers.push_back("HLT_j260_a10_lcw_sub_L1J75");  ////30518
alg->triggers.push_back("HLT_g120_loose");  ////30265
alg->triggers.push_back("HLT_j60");  ////30161
alg->triggers.push_back("HLT_mu4_iloose_mu4_11invm60_noos_novtx_L1MU6_2MU4");  ////29394
alg->triggers.push_back("HLT_xe160_pufit_wEFMu_L1XE50");  ////29028
alg->triggers.push_back("L1_LLP-NOMATCH");  ////29003
alg->triggers.push_back("HLT_j260_a10_lcw_L1J75");  ////28417
alg->triggers.push_back("HLT_j30_xe60_razor100");  ////28276
alg->triggers.push_back("HLT_j260_a10r_L1J75");  ////27925
alg->triggers.push_back("HLT_noalg_L1MU10");  ////27602
alg->triggers.push_back("HLT_mu4_j35_bperf_split");  ////27545
alg->triggers.push_back("HLT_tau35_medium1_tracktwo_tau25_medium1_tracktwo_L1DR-TAU20ITAU12I");  ////27365
alg->triggers.push_back("L1_TAU12IM");  ////27270
alg->triggers.push_back("HLT_noalg_l1topo_L12MU6");  ////27075
alg->triggers.push_back("HLT_xe120_wEFMu");  ////26804
alg->triggers.push_back("HLT_xe160_pufit_wEFMu_L1XE55");  ////26431
alg->triggers.push_back("HLT_noalg_L1RD0_FILLED");  ////26191
alg->triggers.push_back("L1_EM7");  ////26045
alg->triggers.push_back("HLT_tau35_medium1_tracktwo_tau25_medium1_tracktwo_03dR30");  ////25768
alg->triggers.push_back("HLT_tau35_tight1_tracktwo_tau25_tight1_tracktwo");  ////25668
alg->triggers.push_back("HLT_2g20_loose");  ////25608
alg->triggers.push_back("HLT_xe120_tc_em_L1XE50");  ////25606
alg->triggers.push_back("HLT_g10_etcut_L1EM8I_mu10_taumass");  ////25556
alg->triggers.push_back("HLT_xe120_tc_em_wEFMu");  ////25483
alg->triggers.push_back("HLT_tau80_medium1_tracktwo_L1TAU60");  ////25233
alg->triggers.push_back("HLT_xe140_L1XE60");  ////24867
alg->triggers.push_back("HLT_e140_etcut");  ////24854
alg->triggers.push_back("HLT_xe140_L1XE55");  ////24769
alg->triggers.push_back("HLT_5j45");  ////24748
alg->triggers.push_back("HLT_e24_lhmedium_nod0_L1EM20VHI_mu8noL1");  ////24328
alg->triggers.push_back("L1_EM12");  ////24272
alg->triggers.push_back("HLT_xe120_tc_em_L1XE55");  ////24200
alg->triggers.push_back("HLT_e24_medium_L1EM20VHI_mu8noL1");  ////24190
alg->triggers.push_back("HLT_2mu10_bUpsimumu");  ////24035
alg->triggers.push_back("HLT_2mu10_bUpsimumu_delayed");  ////24017
alg->triggers.push_back("HLT_e15_lhtight_nod0_iloose_3j20_L1EM13VH_3J20");  ////23735
alg->triggers.push_back("HLT_tau35_loose1_tracktwo_tau25_loose1_tracktwo");  ////23270
alg->triggers.push_back("HLT_e12_lhloose_2mu10");  ////23014
alg->triggers.push_back("HLT_noalg_l1topo_L1BPH-2M8-MU6MU4_BPH-0DR15-MU6MU4");  ////22951
alg->triggers.push_back("HLT_j30_xe10_razor100");  ////22658
alg->triggers.push_back("HLT_tau35_medium1_tracktwo_tau25_medium1_tracktwo_03dR30_L1DR-TAU20ITAU12I");  ////22619
alg->triggers.push_back("HLT_g20_etcut_L1EM15I_mu4_taumass");  ////22442
alg->triggers.push_back("HLT_tau35_medium1_tracktwo_tau25_medium1_tracktwo_L1DR-TAU20ITAU12I-J25");  ////22396
alg->triggers.push_back("HLT_mu22");  ////21974
alg->triggers.push_back("HLT_e26_lhtight_nod0_e15_etcut_L1EM7_Zee");  ////21929
alg->triggers.push_back("HLT_e120_etcut");  ////21858
alg->triggers.push_back("HLT_noalg_L1MU6");  ////21097
alg->triggers.push_back("HLT_j320");  ////20931
alg->triggers.push_back("HLT_lumipeb_L1RD0_FILLED");  ////20886
alg->triggers.push_back("L1_BTAG-MU6J20");  ////20779
alg->triggers.push_back("HLT_e24_lhmedium_nod0_ivarloose");  ////20715
alg->triggers.push_back("HLT_e24_lhmedium_nod0_iloose");  ////20648
alg->triggers.push_back("HLT_e24_lhmedium_L1EM20VHI_mu8noL1");  ////20145
alg->triggers.push_back("HLT_conej165_larpebj");  ////19937
alg->triggers.push_back("L1_EM15_W-MT35_W-250RO2-XEHT-0_W-05DPHI-JXE-0_W-05DPHI-EM15XE");  ////19880
alg->triggers.push_back("HLT_e24_lhmedium_ivarloose");  ////19862
alg->triggers.push_back("HLT_e24_lhmedium_iloose");  ////19799
alg->triggers.push_back("HLT_g0_hiptrt_L1EM22VHI");  ////19689
alg->triggers.push_back("HLT_xe120_tc_em_wEFMu_L1XE55");  ////19604
alg->triggers.push_back("HLT_j260_a10_lcw_nojcalib_L1J75");  ////19450
alg->triggers.push_back("HLT_e140_lhvloose_nod0");  ////19081
alg->triggers.push_back("HLT_larnoiseburst_L1J100");  ////18979
alg->triggers.push_back("HLT_e32_lhtight_nod0_ivarloose");  ////18978
alg->triggers.push_back("HLT_mu14_ivarloose_tau25_medium1_tracktwo_xe50");  ////18868
alg->triggers.push_back("HLT_mu11_nomucomb_2mu4noL1_nscan03_L1LFV-MU_bTau");  ////18716
alg->triggers.push_back("HLT_2e17_lhvloose_nod0");  ////18702
alg->triggers.push_back("HLT_e100_etcut");  ////18662
alg->triggers.push_back("HLT_e140_lhloose_nod0_L1EM24VHI");  ////18576
alg->triggers.push_back("HLT_e140_lhloose_nod0");  ////18544
alg->triggers.push_back("HLT_2g50_loose");  ////18517
alg->triggers.push_back("HLT_mu10_idperf");  ////18473
alg->triggers.push_back("HLT_e140_lhvloose");  ////18387
alg->triggers.push_back("HLT_mu24_idperf");  ////18313
alg->triggers.push_back("HLT_e60_lhmedium");  ////18305
alg->triggers.push_back("HLT_e60_lhmedium_L1EM24VHI");  ////18299
alg->triggers.push_back("HLT_e15_lhtight_ivarloose_3j20_L1EM13VH_3J20");  ////18108
alg->triggers.push_back("L1_EM15_W-MT35_W-05DPHI-JXE-0_W-05DPHI-EM15XE_XS30");  ////18055
alg->triggers.push_back("HLT_e15_lhtight_iloose_3j20_L1EM13VH_3J20");  ////18020
alg->triggers.push_back("HLT_j225_gsc360_boffperf_split");  ////17809
alg->triggers.push_back("HLT_e20_lhmedium_nod0_g35_loose");  ////17614
alg->triggers.push_back("HLT_4j45");  ////17483
alg->triggers.push_back("HLT_j360_boffperf_split");  ////17417
alg->triggers.push_back("HLT_mu14_ivarloose_tau25_medium1_tracktwo_L1DR-MU10TAU12I_TAU12I-J25");  ////17401
alg->triggers.push_back("HLT_xe150_L1XE60");  ////17311
alg->triggers.push_back("HLT_xe150_L1XE55");  ////17239
alg->triggers.push_back("HLT_e26_lhvloose_nod0_L1EM20VH");  ////17038
alg->triggers.push_back("HLT_xe120_tc_em_wEFMu_L1XE50");  ////17019
alg->triggers.push_back("HLT_e17_lhmedium_nod0_iloose_tau25_medium1_tracktwo");  ////16892
alg->triggers.push_back("HLT_e24_lhmedium_nod0_L1EM15VH_g25_medium");  ////16772
alg->triggers.push_back("L1_EM15VH");  ////16740
alg->triggers.push_back("HLT_noalg_l1topo_L1LFV-MU");  ////16669
alg->triggers.push_back("HLT_tau25_idperf_tracktwo");  ////16520
alg->triggers.push_back("HLT_e26_lhmedium_5j30_0eta240_L1EM13VH_3J20");  ////16432
alg->triggers.push_back("HLT_e26_lhmedium_L1EM22VHI_mu8noL1");  ////16362
alg->triggers.push_back("HLT_j150");  ////16279
alg->triggers.push_back("HLT_mu6_idperf");  ////16211
alg->triggers.push_back("HLT_noalg_L1XE40");  ////15856
alg->triggers.push_back("L1_XE40");  ////15856
alg->triggers.push_back("HLT_xe130_mht_L1XE60_AND_xe90_L1XE60");  ////15770
alg->triggers.push_back("HLT_4j85_nojcalib");  ////15677
alg->triggers.push_back("HLT_e35_lhtight_nod0_ivarloose");  ////15644
alg->triggers.push_back("HLT_e70_lhloose_nod0_xe70noL1");  ////15424
alg->triggers.push_back("HLT_2e17_lhloose");  ////15375
alg->triggers.push_back("HLT_e80_etcut");  ////15372
alg->triggers.push_back("HLT_mu4_iloose_mu4_7invm9_noos_L1MU6_2MU4");  ////15228
alg->triggers.push_back("HLT_j400_boffperf_split");  ////14682
alg->triggers.push_back("HLT_2e17_lhloose_2j35_boffperf");  ////14645
alg->triggers.push_back("HLT_2e17_lhloose_2j35_bperf");  ////14645
alg->triggers.push_back("HLT_e17_lhmedium_nod0_tau80_medium1_tracktwo");  ////14535
alg->triggers.push_back("HLT_tau35_medium1_tracktwo_tau25_medium1_tracktwo_03dR30_L1DR-TAU20ITAU12I-J25");  ////14512
alg->triggers.push_back("HLT_2g20_tight");  ////14388
alg->triggers.push_back("HLT_e26_lhmedium_nod0_5j30_0eta240_L1EM13VH_3J20");  ////14292
alg->triggers.push_back("HLT_j175_320eta490");  ////14233
alg->triggers.push_back("HLT_mu15_mucombTag_noEF_L1MU40");  ////14160
alg->triggers.push_back("HLT_e70_etcut");  ////13834
alg->triggers.push_back("HLT_e12_lhmedium_2mu10");  ////13540
alg->triggers.push_back("HLT_e17_lhmedium_nod0_tau25_medium1_tracktwo_xe50");  ////13524
alg->triggers.push_back("HLT_e17_lhmedium_iloose_tau25_medium1_tracktwo");  ////13481
alg->triggers.push_back("HLT_mu4_iloose_mu4_7invm9_noos_novtx");  ////13480
alg->triggers.push_back("HLT_noalg_L1Topo");  ////13234
alg->triggers.push_back("HLT_e17_lhmedium_nod0_ivarloose_tau25_medium1_tracktwo_xe50");  ////13228
alg->triggers.push_back("HLT_e17_loose_mu14");  ////13131
alg->triggers.push_back("HLT_mu14_ivarloose_tau35_medium1_tracktwo_L1MU10_TAU20IM_J25_2J20");  ////12574
alg->triggers.push_back("HLT_mu14_iloose_tau25_medium1_tracktwo_xe50");  ////12514
alg->triggers.push_back("HLT_g100_loose");  ////12507
alg->triggers.push_back("HLT_xe160_L1XE55");  ////12453
alg->triggers.push_back("HLT_mu6_2j40_0eta490_invm600_L1MU6_J30.0ETA49_2J20.0ETA49");  ////12360
alg->triggers.push_back("HLT_e60_etcut");  ////12281
alg->triggers.push_back("HLT_g35_medium_tau35_dipion1loose_tracktwo_L1TAU12");  ////12247
alg->triggers.push_back("HLT_g35_medium_L1EM24VHI_tau35_dipion1loose_tracktwo_L1TAU12");  ////12239
alg->triggers.push_back("HLT_noalg_to_L12MU20_OVERLAY");  ////12196
alg->triggers.push_back("HLT_mu6_iloose_mu6_11invm24_noos_L1DY-BOX-2MU6");  ////12187
alg->triggers.push_back("HLT_noalg_l1topo_L1DY-BOX-2MU6");  ////12147
alg->triggers.push_back("HLT_2g60_loose_L12EM15VH");  ////11920
alg->triggers.push_back("HLT_j250_jes_cleanLLP_PS_revllp_L1TAU60");  ////11886
alg->triggers.push_back("HLT_j80_0eta240_j60_j45_320eta490_AND_2j45_bmv2c2070_split");  ////11700
alg->triggers.push_back("HLT_j225_gsc380_boffperf_split");  ////11631
alg->triggers.push_back("HLT_e24_lhvloose_nod0_L1EM20VH");  ////11570
alg->triggers.push_back("L1_2MU6-BO");  ////11453
alg->triggers.push_back("HLT_noalg_l1topo_L12MU6-BO");  ////11451
alg->triggers.push_back("HLT_e17_lhmedium_nod0_ivarloose_tau35_medium1_tracktwo_L1EM15HI_TAU20IM_2TAU15_J25_2J20_3J15");  ////11370
alg->triggers.push_back("HLT_e26_lhvloose_L1EM20VH");  ////11363
alg->triggers.push_back("L1_EM3");  ////11260
alg->triggers.push_back("HLT_e40_lhtight_nod0_ivarloose");  ////11092
alg->triggers.push_back("HLT_j320_boffperf_split");  ////11038
alg->triggers.push_back("HLT_j30_muvtx");  ////10939
alg->triggers.push_back("HLT_e50_etcut_L1EM15");  ////10931
alg->triggers.push_back("HLT_g25_loose_L1EM20VH_4j35_0eta490");  ////10767
alg->triggers.push_back("L1_2MU6-B");  ////10765
alg->triggers.push_back("HLT_noalg_l1topo_L12MU6-B");  ////10727
alg->triggers.push_back("L1_TAU12");  ////10722
alg->triggers.push_back("HLT_2e17_lhloose_2j35_boffperf_split");  ////10638
alg->triggers.push_back("HLT_2e17_lhloose_2j35_bperf_split");  ////10638
alg->triggers.push_back("HLT_g80_loose");  ////10477
alg->triggers.push_back("HLT_noalg_L1XE30");  ////10477
alg->triggers.push_back("L1_XE30");  ////10477
alg->triggers.push_back("HLT_noalg_L1MU4");  ////10457
alg->triggers.push_back("HLT_e26_lhvloose_nod0_L1EM20VH_6j15noL1");  ////10261
alg->triggers.push_back("L1_2EM3");  ////10257
alg->triggers.push_back("HLT_j110_320eta490");  ////10256
alg->triggers.push_back("HLT_mu20_msonly");  ////10157
alg->triggers.push_back("HLT_j85_cleanL");  ////9977
alg->triggers.push_back("HLT_j85_cleanT");  ////9977
alg->triggers.push_back("HLT_j85");  ////9973
alg->triggers.push_back("HLT_j85_cleanLLP");  ////9968
alg->triggers.push_back("HLT_beamspot_allTE_trkfast_peb_L13J15");  ////9948
alg->triggers.push_back("HLT_beamspot_activeTE_trkfast_peb_L13J15");  ////9948
alg->triggers.push_back("HLT_e26_lhvloose_nod0_L1EM20VH_5j15noL1");  ////9778
alg->triggers.push_back("HLT_noalg_l1topo_L1MU6_2MU4");  ////9630
alg->triggers.push_back("HLT_g70_loose");  ////9471
alg->triggers.push_back("HLT_e40_etcut_L1EM15");  ////9423
alg->triggers.push_back("HLT_e24_lhmedium_5j30_0eta240_L1EM13VH_3J20");  ////9346
alg->triggers.push_back("HLT_j25");  ////9303
alg->triggers.push_back("HLT_noalg_l1calo_L1MU10_TAU12IM");  ////9054
alg->triggers.push_back("HLT_e24_lhvloose_L1EM20VH");  ////9045
alg->triggers.push_back("HLT_larnoiseburst_L1J40_XE50");  ////9036
alg->triggers.push_back("HLT_j85_320eta490");  ////8976
alg->triggers.push_back("HLT_j85_jes");  ////8880
alg->triggers.push_back("L1_J20_J20.31ETA49");  ////8862
alg->triggers.push_back("HLT_mu20_mucombTag_noEF_L1MU40");  ////8610
alg->triggers.push_back("HLT_noalg_l1calo_L1EM7_MU10");  ////8591
alg->triggers.push_back("HLT_j260_boffperf_split");  ////8525
alg->triggers.push_back("HLT_e26_lhvloose_nod0_L1EM20VH_4j20noL1");  ////8510
alg->triggers.push_back("HLT_2g10_medium_mu20");  ////8481
alg->triggers.push_back("HLT_j100_xe110_mht_1dphi10_L1J40_DPHI-J20s2XE50");  ////8475
alg->triggers.push_back("HLT_g60_loose");  ////8434
alg->triggers.push_back("HLT_e12_loose_2mu10");  ////8281
alg->triggers.push_back("HLT_j15");  ////8236
